<svg width="24" height="25" viewBox="0 0 24 25" fill="none" xmlns="http://www.w3.org/2000/svg">
<g clip-path="url(#clip0_391_844)">
<path d="M7.50003 1.68506C8.03003 6.33506 15.97 6.33506 16.5 1.68506H7.50003ZM7.50003 1.68506L0.660034 5.41506L2.70003 10.7151H5.44003L5.50003 22.6851H15.51C17.16 22.6851 18.5 21.3551 18.51 19.6951L18.55 10.7151H21.29L23.33 5.41506L18.93 3.30506" stroke="#A989F5" stroke-miterlimit="10"/>
</g>
<defs>
<clipPath id="clip0_391_844">
<rect width="24" height="24" fill="white" transform="translate(0 0.185059)"/>
</clipPath>
</defs>
</svg>
