<svg width="75" height="22" viewBox="0 0 75 22" fill="none" xmlns="http://www.w3.org/2000/svg">
<g clip-path="url(#clip0_457_1279)">
<path d="M27.5898 14.7978C27.9109 14.8041 28.2316 14.7711 28.5448 14.6995C28.7619 14.6509 28.9678 14.5615 29.1516 14.4359C29.2935 14.3369 29.4036 14.1987 29.4685 14.0383C29.5293 13.8754 29.5595 13.7027 29.5577 13.5289C29.5505 13.3336 29.4949 13.1432 29.396 12.9747C29.2971 12.8063 29.1579 12.6651 28.991 12.5638C28.3908 12.1818 27.7425 11.8813 27.0632 11.6702C26.6646 11.5302 26.2674 11.3693 25.8718 11.1876C25.4836 11.0129 25.1228 10.7826 24.8008 10.504C24.481 10.2238 24.2188 9.88382 24.0288 9.50316C23.8197 9.06402 23.7158 8.5821 23.7254 8.09571C23.7177 7.57212 23.8259 7.05333 24.0422 6.57656C24.2486 6.12953 24.5537 5.73534 24.9347 5.42379C25.3547 5.08702 25.8369 4.8365 26.3537 4.68656C26.9578 4.50913 27.585 4.42328 28.2145 4.43188C29.4653 4.40607 30.7023 4.69652 31.8112 5.27635L31.0214 7.4389C30.6562 7.25953 30.2772 7.11011 29.8879 6.99209C29.4006 6.83487 28.8917 6.75497 28.3796 6.75528C27.8923 6.71883 27.4041 6.8129 26.9651 7.02784C26.822 7.11351 26.7049 7.23652 26.6263 7.38369C26.5477 7.53087 26.5106 7.69668 26.5188 7.86337C26.5115 8.06268 26.5661 8.25935 26.675 8.42635C26.7949 8.59179 26.9466 8.73156 27.1212 8.83741C27.3317 8.97001 27.5544 9.08222 27.7861 9.17252C28.039 9.27082 28.3172 9.37358 28.6206 9.48082C29.2513 9.71614 29.8017 9.94699 30.2717 10.1734C30.7019 10.3752 31.0967 10.6452 31.4408 10.9732C31.7578 11.2763 32.002 11.6475 32.1548 12.0589C32.3177 12.5391 32.3947 13.0443 32.3824 13.5512C32.4083 14.0552 32.3136 14.5581 32.1064 15.0182C31.8992 15.4782 31.5854 15.8821 31.191 16.1963C30.3966 16.8219 29.1977 17.1346 27.5943 17.1346C27.1045 17.1363 26.6153 17.102 26.1306 17.0319C25.7423 16.9771 25.3578 16.898 24.9793 16.7951C24.6874 16.7181 24.4011 16.6211 24.1225 16.5046C23.9151 16.4156 23.7125 16.3157 23.5156 16.2053L24.2876 14.0249C24.7138 14.2501 25.1625 14.4298 25.6263 14.561C26.2648 14.7326 26.9244 14.8124 27.5853 14.7978H27.5898Z" fill="white"/>
<path d="M41.7754 7.64893C41.2488 9.43616 40.697 11.1057 40.1199 12.6576C39.5427 14.2096 38.9165 15.7198 38.2412 17.1883C38.0294 17.6528 37.7832 18.1008 37.5049 18.5287C37.2805 18.8643 37.0084 19.1654 36.6972 19.4223C36.4038 19.6625 36.0655 19.8418 35.7021 19.9496C35.2761 20.0846 34.8325 20.1554 34.3857 20.1596C34.0048 20.1619 33.6247 20.1229 33.2522 20.0434C32.9612 19.9837 32.676 19.8985 32.3999 19.7887L32.8461 17.6976C33.0799 17.7816 33.3202 17.8459 33.5646 17.8898C33.7859 17.9261 34.0097 17.944 34.2339 17.9434C34.4302 17.956 34.627 17.9288 34.8125 17.8636C34.9981 17.7983 35.1686 17.6963 35.3138 17.5636C35.5968 17.2624 35.8154 16.9067 35.9564 16.5181C35.3614 15.3474 34.7665 14.0323 34.1715 12.5728C33.523 10.9654 32.96 9.3248 32.4847 7.65786H35.2781C35.3942 8.11361 35.5325 8.60807 35.6932 9.14127C35.8538 9.67446 36.0219 10.2136 36.1974 10.7587C36.3729 11.3038 36.5514 11.834 36.7329 12.3494C36.9144 12.8647 37.0884 13.3338 37.255 13.7568C37.4067 13.3338 37.5659 12.8647 37.7325 12.3494C37.8991 11.834 38.0612 11.3038 38.2189 10.7587C38.3765 10.2136 38.5253 9.67446 38.6651 9.14127C38.8049 8.60807 38.9403 8.11063 39.0712 7.64893H41.7754Z" fill="white"/>
<path d="M45.3723 15.0124C45.7173 15.0342 46.0631 14.9871 46.3898 14.8739C46.4896 14.8249 46.5718 14.7462 46.6254 14.6487C46.6789 14.5511 46.701 14.4394 46.6887 14.3288C46.6794 14.2101 46.6385 14.0961 46.5702 13.9987C46.5019 13.9012 46.4088 13.8239 46.3005 13.7747C45.9243 13.5617 45.5301 13.3823 45.1224 13.2386C44.7428 13.0997 44.3704 12.9417 44.0068 12.7649C43.6932 12.6149 43.4055 12.4158 43.1545 12.1751C42.9181 11.9435 42.7327 11.665 42.6101 11.3575C42.4729 10.9922 42.4078 10.6038 42.4182 10.2137C42.4031 9.81886 42.4827 9.42619 42.6504 9.06857C42.8181 8.71095 43.069 8.39881 43.3821 8.15834C44.1557 7.61523 45.0895 7.34919 46.0328 7.40323C46.5747 7.40085 47.1156 7.45022 47.6482 7.55068C48.0656 7.62475 48.4761 7.73386 48.8753 7.87685L48.4291 9.91429C48.1041 9.80287 47.7734 9.7089 47.4384 9.63281C47.0442 9.54639 46.6416 9.50443 46.238 9.5077C45.4199 9.5077 45.0109 9.73557 45.0109 10.1913C45.0094 10.2878 45.0277 10.3836 45.0644 10.4728C45.1119 10.5691 45.1843 10.6509 45.2742 10.7096C45.4155 10.8043 45.5648 10.8865 45.7204 10.9554C45.9019 11.0447 46.1324 11.1415 46.4121 11.2458C46.9012 11.421 47.3769 11.6316 47.8356 11.8758C48.1679 12.0485 48.4694 12.2749 48.7281 12.546C48.9346 12.7758 49.0871 13.0491 49.1743 13.3458C49.2681 13.677 49.3132 14.0202 49.3082 14.3645C49.3303 14.7688 49.2474 15.1718 49.0675 15.5344C48.8876 15.897 48.6169 16.2067 48.2818 16.4332C47.4046 16.9509 46.3932 17.1952 45.3768 17.1347C44.682 17.1511 43.988 17.0806 43.3107 16.9247C42.9253 16.8388 42.5465 16.7253 42.1772 16.5851L42.6235 14.4583C43.0679 14.6334 43.5261 14.7709 43.9934 14.8694C44.4496 14.9672 44.9148 15.0166 45.3813 15.0168L45.3723 15.0124Z" fill="white"/>
<path d="M53.0206 12.1974C52.9892 12.8911 53.1833 13.5762 53.574 14.15C53.7617 14.3967 54.0074 14.5931 54.2892 14.7217C54.571 14.8503 54.8803 14.9072 55.1894 14.8872C55.4244 14.8872 55.6401 14.8783 55.8364 14.8604C56.0328 14.8425 56.1964 14.8217 56.3273 14.7979V10.0393C56.1278 9.91907 55.9111 9.83017 55.6847 9.77572C55.4243 9.70519 55.1557 9.66914 54.8859 9.66849C53.6454 9.66849 53.0251 10.5115 53.0251 12.1974H53.0206ZM58.9288 16.5851C58.6938 16.6566 58.4246 16.7236 58.1212 16.7861C57.8177 16.8487 57.4994 16.9038 57.1662 16.9515C56.833 16.9991 56.4939 17.0379 56.1488 17.0676C55.8037 17.0974 55.4735 17.1123 55.1581 17.1123C54.4653 17.1232 53.7761 17.0097 53.1233 16.7772C52.5562 16.5738 52.0411 16.2473 51.615 15.821C51.1973 15.3913 50.8776 14.8761 50.6779 14.3108C50.453 13.6709 50.3427 12.9963 50.3521 12.3181C50.3435 11.6316 50.4383 10.9477 50.6332 10.2896C50.7982 9.72871 51.0727 9.20626 51.4409 8.75253C51.7889 8.3336 52.2308 8.00291 52.7306 7.78743C53.2827 7.55601 53.8769 7.4419 54.4754 7.45232C54.8027 7.44918 55.1293 7.48518 55.4482 7.55955C55.7464 7.63384 56.0375 7.734 56.3183 7.85891V3.67679L58.9288 3.25232V16.5851Z" fill="white"/>
<path d="M63.6282 16.8889H61.0132V7.64889H63.6282V16.8889ZM63.8736 4.96804C63.8868 5.17839 63.8537 5.38907 63.7766 5.58518C63.6995 5.78129 63.5803 5.95804 63.4274 6.10293C63.1238 6.36968 62.7336 6.51677 62.3296 6.51677C61.9257 6.51677 61.5355 6.36968 61.2319 6.10293C61.0788 5.95823 60.9594 5.78151 60.8823 5.58535C60.8052 5.38919 60.7722 5.17842 60.7857 4.96804C60.7725 4.75769 60.8056 4.54701 60.8827 4.3509C60.9598 4.15479 61.079 3.97804 61.2319 3.83315C61.5355 3.5664 61.9257 3.41931 62.3296 3.41931C62.7336 3.41931 63.1238 3.5664 63.4274 3.83315C63.5803 3.97804 63.6995 4.15479 63.7766 4.3509C63.8537 4.54701 63.8868 4.75769 63.8736 4.96804Z" fill="white"/>
<path d="M67.8538 11.9696C67.8538 13.4351 68.4488 14.1679 69.6388 14.1679C69.894 14.1691 70.1481 14.133 70.3929 14.0606C70.5962 14.0006 70.7923 13.9182 70.9775 13.8149V9.63278C70.8496 9.60895 70.7008 9.5881 70.5313 9.57022C70.3617 9.55235 70.1564 9.54342 69.9154 9.54342C69.6217 9.52095 69.327 9.57162 69.0576 9.6909C68.7882 9.81018 68.5525 9.99437 68.3715 10.227C68.0124 10.7352 67.8305 11.3476 67.8538 11.9696ZM73.5925 15.7317C73.5925 17.2419 73.2087 18.3634 72.4412 19.0962C71.6736 19.8289 70.4837 20.1953 68.8712 20.1953C68.3058 20.1957 67.7413 20.1464 67.1845 20.0479C66.6546 19.957 66.1324 19.8256 65.6226 19.6547L66.0689 17.4564C66.4865 17.6235 66.9181 17.7536 67.3585 17.8451C67.8642 17.9433 68.3785 17.9898 68.8936 17.9836C69.1778 18.0129 69.4649 17.9844 69.7379 17.9C70.0109 17.8155 70.264 17.6768 70.4822 17.4921C70.7892 17.1446 70.9492 16.6912 70.9284 16.2277V15.8926C70.6499 16.021 70.358 16.1184 70.0582 16.183C69.7384 16.2501 69.4123 16.2831 69.0854 16.2813C68.5438 16.3165 68.0009 16.2332 67.4947 16.0373C66.9884 15.8413 66.5308 15.5373 66.1536 15.1464C65.4283 14.2546 65.0651 13.122 65.1362 11.9741C65.1282 11.3418 65.2355 10.7134 65.453 10.1198C65.6514 9.58037 65.9652 9.09086 66.3723 8.68554C66.7948 8.27628 67.3 7.96243 67.8538 7.76512C68.4897 7.53965 69.1606 7.4292 69.8351 7.43895C70.1505 7.43895 70.4747 7.45384 70.8079 7.48363C71.1411 7.51342 71.4713 7.55214 71.7986 7.5998C72.1258 7.64746 72.4382 7.70256 72.7357 7.76512C73.0332 7.82767 73.2994 7.89469 73.5345 7.96618V15.7317H73.5925Z" fill="white"/>
<path d="M10.6725 0.647492C8.73486 0.630501 6.83148 1.15928 5.17958 2.17348C3.52769 3.18768 2.19383 4.64644 1.33023 6.38329C0.466641 8.12013 0.108103 10.0651 0.295541 11.9962C0.482979 13.9272 1.20884 15.7667 2.39029 17.3045L3.3497 16.3617C3.64836 16.1779 3.99446 16.0863 4.34482 16.0981L5.78171 14.6817C6.50908 13.9624 5.27746 12.7069 5.27746 12.7069L3.55497 10.9509C10.2887 4.30685 15.2242 6.36664 15.2242 6.36664C15.2242 6.36664 17.1965 11.3307 10.4538 17.9837L8.7269 16.2277C8.7269 16.2277 7.49081 14.9722 6.76344 15.6871L5.32655 17.1034C5.33352 17.4541 5.23731 17.7991 5.04988 18.0954L4.08154 19.0426C5.36442 20.0836 6.87766 20.8018 8.49464 21.1371C10.1116 21.4725 11.7853 21.4151 13.3756 20.9699C14.9659 20.5247 16.4265 19.7046 17.6353 18.5782C18.8442 17.4518 19.7659 16.0519 20.3235 14.4956C20.8812 12.9393 21.0584 11.272 20.8404 9.63305C20.6224 7.99413 20.0155 6.43133 19.0706 5.07542C18.1256 3.71952 16.87 2.60995 15.409 1.83958C13.9479 1.06921 12.3237 0.660446 10.6725 0.647492Z" fill="white"/>
</g>
<defs>
<clipPath id="clip0_457_1279">
<rect width="74" height="21" fill="white" transform="translate(0.0253906 0.5)"/>
</clipPath>
</defs>
</svg>
