<svg width="888" height="686" viewBox="0 0 888 686" fill="none" xmlns="http://www.w3.org/2000/svg">
<path d="M553.589 422.323L551.501 425.424L557.192 429.27L559.28 426.169L553.589 422.323Z" fill="#6D9ADD"/>
<path d="M560.034 417.629L557.947 420.729L561.389 423.062L563.476 419.962L560.034 417.629Z" fill="#6D9ADD"/>
<path d="M560.749 409.284L558.661 412.385L565.429 416.959L567.517 413.857L560.749 409.284Z" fill="#6D9ADD"/>
<path d="M543.867 395.164C540.976 394.992 538.295 395.858 536.18 397.408C536.176 397.417 531.561 399.855 531.561 406.419C531.561 412.983 536.747 417.691 543.141 417.691C549.534 417.691 555.115 412.249 554.697 405.699C554.343 400.076 549.638 395.505 543.867 395.164ZM543.925 410.845C540.768 411.348 538.077 408.729 538.594 405.655C538.907 403.795 540.45 402.294 542.365 401.984C545.523 401.481 548.213 404.1 547.696 407.174C547.383 409.034 545.84 410.536 543.93 410.845H543.925Z" fill="#6D9ADD"/>
<path d="M547.664 395.752L544.969 402.482C546.793 403.15 548.095 404.885 548.095 406.918C548.095 408.429 547.377 409.77 546.261 410.64L550.461 416.472C553.416 414.307 555.329 410.832 555.329 406.918C555.329 402.084 551.851 397.611 547.664 395.752Z" fill="#CDDFFB"/>
<path d="M498.262 178.038V183.942H505.867C508.157 183.942 510.016 182.075 510.016 179.774V177.916" fill="#6D9ADD"/>
<path d="M510.012 177.915C510.012 176.579 510.616 175.305 511.688 174.514C514.863 172.176 516.923 168.408 516.923 164.151C516.923 156.925 510.986 151.092 503.747 151.309C497.097 151.506 491.637 156.925 491.361 163.601C491.174 168.065 493.262 172.054 496.554 174.491C497.622 175.281 498.259 176.523 498.259 177.854V178.038" fill="#CDDFFB"/>
<path d="M502.07 177.751V162.368C499.79 162.368 497.94 164.226 497.94 166.517H510.335C510.335 164.226 508.485 162.368 506.205 162.368V177.586" stroke="#171321" stroke-width="1.2" stroke-miterlimit="10"/>
<path d="M498.282 180.7V183.815H505.854C508.134 183.815 509.984 181.956 509.984 179.665V177.812H498.254" stroke="#171321" stroke-width="1.2" stroke-miterlimit="10"/>
<path d="M522.585 163.06H527.295" stroke="#CFCED1" stroke-width="1.2" stroke-miterlimit="10"/>
<path d="M480.98 163.06H485.686" stroke="#CFCED1" stroke-width="1.2" stroke-miterlimit="10"/>
<path d="M504.135 144.525V139.798" stroke="#CFCED1" stroke-width="1.2" stroke-miterlimit="10"/>
<path d="M517.181 149.954L520.51 146.609" stroke="#CFCED1" stroke-width="1.2" stroke-miterlimit="10"/>
<path d="M491.09 149.954L487.76 146.609" stroke="#CFCED1" stroke-width="1.2" stroke-miterlimit="10"/>
<path d="M777.231 251.232H750.959C748.151 251.232 745.876 253.507 745.876 256.315C745.876 259.122 748.151 261.398 750.959 261.398H777.231C780.038 261.398 782.314 259.122 782.314 256.315C782.314 253.507 780.038 251.232 777.231 251.232Z" fill="#F7F7F7"/>
<path d="M477.896 398.281H465.984V404.222H477.896V398.281Z" fill="#F7F7F7"/>
<path d="M515.376 398.281H503.463V404.222H515.376V398.281Z" fill="#F7F7F7"/>
<path d="M498.803 412.03H465.984V417.971H498.803V412.03Z" fill="#F7F7F7"/>
<path d="M515.071 425.775H487.757V431.715H515.071V425.775Z" fill="#F7F7F7"/>
<path d="M638.78 318.495L662.484 342.365L650.63 352.001L616.32 372.045L600.528 381.349C600.528 381.349 595.526 384.77 592.419 390.123C591.862 391.083 587.875 399.624 587.875 399.624L572.837 389.216L564.966 392.354L562.698 397.177C562.698 397.177 560.458 401.326 557.229 399.305L558.383 393.522L566.547 382.337L581.616 374.043L604.21 355.84L617.528 340.308L631.25 329.662L638.776 318.495H638.78Z" fill="#EAB0A4"/>
<path d="M716.64 246.669C716.299 245.444 716.483 244.132 717.148 243.05C717.749 242.071 718.495 241.182 719.375 240.437C720.425 239.552 721.234 238.632 721.364 236.993C721.548 234.743 721.297 231.618 720.129 229.521C719.164 227.788 716.344 227.487 714.629 228.893L713.564 229.705C712.312 230.666 711.575 232.157 711.575 233.733V234.654L711.71 241.887C709.712 240.54 708.508 238.246 707.983 235.893C707.458 233.54 707.301 228.116 707.377 225.705C700.336 214.196 689.434 220.783 681.653 212.935C679.928 216.482 671.509 222.984 667.948 222.844L668.33 224.591L671.46 235.785C671.882 237.276 671.94 238.847 671.626 240.365L671.586 240.567C670.903 243.868 671.563 247.303 673.427 250.109L674.809 252.197C675.254 252.866 675.672 253.553 676.062 254.253L681.127 260.472C683.875 263.849 688.132 265.506 692.348 264.998L692.582 269.673L694.638 278.209L703.753 289.021L721.993 263.593L716.636 246.665L716.64 246.669Z" fill="#EAB0A4"/>
<path d="M681.743 253.727C683.332 252.547 685.389 252.416 687.153 251.572C688.235 251.051 689.201 250.27 690.283 249.754C691.949 248.959 693.911 248.784 695.312 247.509C694.908 249.296 694.275 250.988 693.291 252.421C692.039 254.244 690.112 255.42 688.038 255.631C685.963 255.842 683.449 255.25 681.738 253.732L681.743 253.727Z" fill="white"/>
<path d="M721.041 248.268C722.051 248.147 722.935 247.554 723.914 247.271C726.564 246.503 729.563 248.079 732.104 247.006C735.077 245.753 735.611 241.744 735.059 238.565C734.978 238.098 734.893 237.581 735.135 237.177C735.468 236.629 736.209 236.553 736.828 236.396C739.105 235.803 740.533 233.033 739.693 230.837C738.867 228.686 736.289 227.119 736.586 224.834C736.675 224.147 737.03 223.527 737.273 222.88C738.216 220.37 737.133 217.393 735.068 215.75C733.959 214.865 733.231 213.55 733.2 212.131C733.16 210.402 732.163 208.619 730.645 207.703C728.364 206.329 725.383 206.621 722.994 207.798L720.623 208.058C708.805 190.174 690.027 200.272 690.027 200.272C674.765 192.311 664.082 217.775 664.082 217.775C661.972 229.49 670.194 231.232 670.194 231.232L668.339 224.596L667.957 222.853C671.518 222.993 679.937 216.486 681.662 212.944C689.443 220.797 700.345 214.205 707.386 225.714C707.305 228.12 707.467 233.549 707.992 235.902C708.517 238.255 709.721 240.549 711.719 241.896L711.584 234.663V233.742C711.584 232.162 712.321 230.675 713.573 229.714L714.638 228.902C716.353 227.496 719.177 227.797 720.138 229.53C721.305 231.632 721.557 234.757 721.373 237.002C721.238 238.641 720.43 239.561 719.384 240.446C718.504 241.187 717.758 242.076 717.157 243.059C716.492 244.141 716.308 245.453 716.649 246.678L717.067 247.998C720.726 249.036 723.923 247.285 723.923 247.285" fill="#AA5F44"/>
<path d="M401.901 190.128C403.028 198.982 402.843 208.246 399.382 216.472C398.443 218.703 397.159 220.957 395.026 222.107C392.381 223.53 387.909 222.996 386.117 220.585C382.745 221.254 379.274 221.748 375.88 221.213C372.485 220.679 369.136 218.982 367.295 216.081C366.661 215.08 366.217 213.962 365.925 212.817C365.516 211.214 365.395 209.539 365.566 207.895C355.867 201.501 369.841 188.035 372.351 183.473C363.541 179.589 363.065 170.627 368.089 165.867C376.347 158.05 381.448 144.193 383.082 140.448C383.643 139.164 384.218 137.857 385.125 136.789C386.692 134.948 389.068 134.027 391.376 133.313C396.692 131.674 403.355 130.354 407.832 133.654C407.832 133.654 425.362 122.68 440.902 128.917C452.182 133.439 442.82 137.413 450.103 141.467C458.437 146.11 467.951 145.19 468.746 155.634C469.007 159.024 467.615 162.499 465.087 164.771C467.57 167.115 470.169 170.061 472.653 172.405C473.941 173.622 475.248 174.856 476.164 176.374C477.897 179.239 478.059 182.862 477.17 186.095C476.281 189.324 474.44 192.211 472.365 194.842C474.206 215.511 459.052 220.872 452.33 216.849C447.642 224.141 437.755 226.22 433.898 223.943L428.186 221.501L424.549 206.975" fill="#51352B"/>
<path d="M448.239 162.105L450.498 162.001C441.32 161.691 436.569 151.615 436.569 151.615C425.362 162.105 409.485 156.694 409.44 156.68C409.372 160.376 405.847 165.023 401.636 168.009C399.893 169.244 409.803 169.244 403.216 187.268L401.954 190.599C401.954 190.599 402.453 195.04 402.408 202.157C402.408 202.157 401.613 222.74 391.928 222.87C391.928 222.87 394.438 233.575 415.156 235.555C427.001 236.687 436.937 229.652 444 223.5C444 223.5 437.5 225.5 428.55 221.411L425.766 206.863C430.333 207.357 433.498 202.921 433.974 202.332L439.039 196.113C439.434 195.413 439.852 194.726 440.292 194.057L441.675 191.969C443.534 189.158 444.198 185.723 443.516 182.427L443.475 182.225C443.161 180.708 443.215 179.136 443.641 177.645L448.239 162.1V162.105Z" fill="#B7714E"/>
<path d="M434.293 192.746C432.411 192.117 430.418 192.633 428.483 192.382C427.293 192.225 426.134 191.78 424.94 191.628C423.108 191.39 421.19 191.839 419.462 191.062C420.405 192.633 421.532 194.048 422.91 195.098C424.666 196.441 426.866 196.957 428.9 196.513C430.934 196.068 433.143 194.721 434.293 192.746Z" fill="white"/>
<path d="M406.637 438.311C406.116 436.183 408.496 433.933 410.952 433.96L412.434 433.929C414.18 433.893 415.846 434.669 416.937 436.03L417.575 436.825L419.088 438.113H419.641C421.1 438.113 422.281 436.932 422.281 435.473V425.307L418.217 418.536C416.179 415.137 417.49 410.723 421.055 408.985L421.818 408.613C426.506 406.332 431.661 405.173 436.874 405.232L443.6 405.304C446.232 405.33 448.602 406.916 449.635 409.336L450.883 412.263L452.284 407.98C455.01 401.891 451.386 394.419 444.386 393.117C436.241 391.599 421.702 391.11 408.895 402.313C400.71 402.591 394.442 409.722 395.259 417.876C396.265 427.916 399.071 440.076 406.565 444.714L409.497 445.203C408.55 443.699 407.4 441.414 406.641 438.307L406.637 438.311Z" fill="#45424D"/>
<path d="M461.57 441.957C461.426 441.082 461.543 434.557 461.462 433.673L461.211 430.911C460.874 427.198 459.064 423.772 456.191 421.401L456.015 421.253C454.691 420.162 453.654 418.765 452.985 417.185L449.635 409.34C448.602 406.92 446.231 405.335 443.6 405.308L436.874 405.236C431.661 405.183 426.506 406.337 421.818 408.618L421.055 408.99C417.49 410.723 416.178 415.142 418.217 418.541L422.281 425.308V435.289C422.281 436.852 421.014 438.114 419.456 438.114H419.088L417.575 436.825L416.937 436.03C415.842 434.665 414.18 433.888 412.434 433.929L410.952 433.96C408.496 433.933 406.116 436.183 406.637 438.311C408.145 444.463 411.158 447.399 411.158 447.399C412.627 448.809 414.503 449.725 416.515 450.022L419.272 450.426C421.396 450.825 421.499 457.529 421.58 459.092L422.146 470.466C422.236 472.23 422.986 473.896 424.247 475.131L427.063 477.883C427.889 478.692 428.899 479.28 430.008 479.603L446.285 484.331C448.764 485.05 451.4 483.891 452.54 481.574L454.803 476.981C455.809 474.942 455.939 472.58 455.171 470.443L453.694 466.344C453.42 465.585 453.258 464.79 453.214 463.986L452.872 458.028C454.601 457.314 457.3 456.07 458.916 455.01C463.245 452.172 464.376 446.308 461.574 441.957H461.57Z" fill="#E8BD9A"/>
<path d="M383.831 401.438H378.353V431.715H383.831V401.438Z" stroke="#CFCED1" stroke-width="1.2" stroke-miterlimit="10"/>
<path d="M392.704 424.473V431.715H387.226V417.234H391.603" stroke="#CFCED1" stroke-width="1.2" stroke-miterlimit="10"/>
<path d="M368.978 413.548H374.451V431.715H368.978" stroke="#CFCED1" stroke-width="1.2" stroke-miterlimit="10"/>
<path d="M455.046 439.64C452.073 439.69 446.573 440.987 443.057 442.442C441.791 442.968 441.656 444.719 442.841 445.406C443.744 445.927 444.682 446.353 445.652 446.645C447.992 447.35 450.475 447.036 452.41 445.779C453.964 444.773 455.405 443.125 456.133 441.225C456.429 440.453 455.872 439.622 455.046 439.64Z" fill="white"/>
<path d="M373.931 134.696H321.414V287.398H486.972C512.337 287.398 532.902 266.833 532.902 241.468V134.696H458.881" stroke="#171321" stroke-width="1.2" stroke-miterlimit="10"/>
<path d="M403.898 343.33H594.852" stroke="#171321" stroke-width="1.2" stroke-miterlimit="10"/>
<path d="M643.261 365.206V512.79C643.261 538.155 622.696 558.72 597.331 558.72H368.923V398.766" stroke="#171321" stroke-width="1.2" stroke-miterlimit="10"/>
<path d="M635.637 318.612H570.628V237.622H653.499" stroke="#171321" stroke-width="1.2" stroke-miterlimit="10"/>
<path d="M744.089 237.622H796V272.682C796 298.047 775.435 318.612 750.07 318.612H740.851L714.238 345.553V318.612H687.009" stroke="#171321" stroke-width="1.2" stroke-miterlimit="10"/>
<path d="M729.19 266.911L758.269 276.525L778.65 303.08" stroke="#171321" stroke-width="1.2" stroke-miterlimit="10"/>
<path d="M708.122 255.663L694.638 264.522" stroke="#171321" stroke-width="1.2" stroke-miterlimit="10"/>
<path d="M721.997 263.597L703.758 289.025L694.643 278.217L692.169 267.953" stroke="#171321" stroke-width="1.2" stroke-miterlimit="10"/>
<path d="M681.441 233.706V236.512L678.074 246.885L679.758 248.806H684.248" stroke="#171321" stroke-width="1.2" stroke-miterlimit="10"/>
<path d="M691.168 229.405L692.587 233.069" stroke="#171321" stroke-width="1.2" stroke-miterlimit="10"/>
<path d="M674.509 234.2L675.928 237.864" stroke="#171321" stroke-width="1.2" stroke-miterlimit="10"/>
<path d="M681.743 253.727C683.332 252.547 685.389 252.416 687.153 251.572C688.235 251.051 689.201 250.27 690.283 249.754C691.949 248.959 693.911 248.784 695.312 247.509C694.908 249.296 694.275 250.988 693.291 252.421C692.039 254.244 690.112 255.42 688.038 255.631C685.963 255.842 683.449 255.25 681.738 253.732L681.743 253.727Z" stroke="#171321" stroke-width="1.2" stroke-miterlimit="10"/>
<path d="M683.795 252.713L684.675 253.62V254.989L681.743 253.728L683.795 252.713Z" fill="#171321"/>
<path d="M693.489 248.591L693.336 251.591L694.777 249.39L694.89 247.846L693.489 248.591Z" fill="#171321"/>
<path d="M686.763 222.827C687.077 222.678 687.427 222.634 687.773 222.602C690.238 222.382 692.743 222.584 695.141 223.195" stroke="#171321" stroke-width="1.2" stroke-miterlimit="10"/>
<path d="M669.794 230.549C670.652 228.946 671.864 227.536 673.324 226.45" stroke="#171321" stroke-width="1.2" stroke-miterlimit="10"/>
<path d="M699.681 203.927C703.825 204.331 707.817 206.181 710.803 209.091" stroke="#171321" stroke-width="1.2" stroke-miterlimit="10"/>
<path d="M704.301 214.061C707.961 216.89 711.616 220.181 712.981 224.6" stroke="#171321" stroke-width="1.2" stroke-miterlimit="10"/>
<path d="M685.842 274.199L662.771 284.989L638.78 319.016L657.28 337.125" stroke="#171321" stroke-width="1.2" stroke-miterlimit="10"/>
<path d="M662.484 342.369C664.585 340.312 666.583 338.139 668.46 335.862L683.817 319.015" stroke="#171321" stroke-width="1.2" stroke-miterlimit="10"/>
<path d="M755.072 318.495L750.182 308.059" stroke="#171321" stroke-width="1.2" stroke-miterlimit="10"/>
<path d="M723.133 260.588L727.771 261.729L730.672 272.303L718.198 298.252L714.718 300.174L709.335 290.565L705.585 294.696" stroke="#171321" stroke-width="1.2" stroke-miterlimit="10"/>
<path d="M715.109 233.307C715.787 232.422 717.022 232.243 717.39 232.463C717.642 232.615 718.369 233.918 717.889 234.591C717.727 234.82 717.462 234.95 717.233 235.112C716.398 235.696 715.944 236.782 716.115 237.784" stroke="#171321" stroke-width="1.2" stroke-miterlimit="10"/>
<path d="M711.58 234.662V233.742C711.58 232.161 712.316 230.675 713.569 229.714L714.633 228.902C716.348 227.496 719.173 227.797 720.134 229.53C721.301 231.632 721.553 234.757 721.368 237.002C721.234 238.641 720.425 239.561 719.379 240.446C718.499 241.187 717.754 242.076 717.152 243.059C716.488 244.141 716.303 245.452 716.645 246.678L720.461 261.406" stroke="#171321" stroke-width="1.2" stroke-miterlimit="10"/>
<path d="M687.036 271.055L685.842 279.609L690.584 296.811L693.763 297.292L699.34 291.526L704.818 302.096L702.635 318.611" stroke="#171321" stroke-width="1.2" stroke-miterlimit="10"/>
<path d="M561.922 382.156L545.11 370.846L518.461 410.458L575.891 449.105L602.544 409.493L574.018 390.297" stroke="#171321" stroke-width="1.2" stroke-miterlimit="10"/>
<path d="M572.837 438.563L583.048 423.431" stroke="#CFCED1" stroke-width="1.2" stroke-miterlimit="10"/>
<path d="M567.323 435.181L586.15 407.27" stroke="#CFCED1" stroke-width="1.2" stroke-miterlimit="10"/>
<path d="M562.007 431.504L580.834 403.593" stroke="#171321" stroke-width="1.2" stroke-miterlimit="10"/>
<path d="M553.793 421.845L551.772 424.842L557.282 428.558L559.303 425.561L553.793 421.845Z" stroke="#171321" stroke-width="1.2" stroke-miterlimit="10"/>
<path d="M560.031 417.306L558.01 420.301L561.342 422.555L563.363 419.56L560.031 417.306Z" stroke="#171321" stroke-width="1.2" stroke-miterlimit="10"/>
<path d="M560.727 409.246L558.706 412.243L565.257 416.662L567.279 413.666L560.727 409.246Z" stroke="#171321" stroke-width="1.2" stroke-miterlimit="10"/>
<path d="M562.007 431.504L580.834 403.593" stroke="#CFCED1" stroke-width="1.2" stroke-miterlimit="10"/>
<path d="M548.307 390.122L553.04 383.108" stroke="#CFCED1" stroke-width="1.2" stroke-miterlimit="10"/>
<path d="M553.942 389.215L556.488 385.439" stroke="#CFCED1" stroke-width="1.2" stroke-miterlimit="10"/>
<path d="M452.212 436.267L454.839 434.161L454.857 433.757C454.92 432.258 454.192 430.834 452.935 430.008L444.871 424.714L443.497 420.588C443.227 419.775 443.294 418.89 443.685 418.131L444.915 415.743" stroke="#171321" stroke-width="1.2" stroke-miterlimit="10"/>
<path d="M431.553 425.307L432.868 429.452" stroke="#171321" stroke-width="1.2" stroke-miterlimit="10"/>
<path d="M449.253 417.917L450.564 422.061" stroke="#171321" stroke-width="1.2" stroke-miterlimit="10"/>
<path d="M455.046 439.64C452.073 439.69 446.573 440.987 443.057 442.442C441.791 442.968 441.656 444.719 442.841 445.406C443.744 445.927 444.682 446.353 445.652 446.645C447.992 447.35 450.475 447.036 452.41 445.779C453.964 444.773 455.405 443.125 456.133 441.225C456.429 440.453 455.872 439.622 455.046 439.64V439.64Z" stroke="#171321" stroke-width="1.2" stroke-miterlimit="10"/>
<path d="M454.224 439.784L453.928 441.719L454.871 442.9L455.742 441.746L456.097 440.121L454.224 439.784Z" fill="#171321"/>
<path d="M442.936 442.783L445.046 445.962L442.271 445.06L442.024 443.969L442.936 442.783Z" fill="#171321"/>
<path d="M450.564 411.455C448.714 410.664 446.923 410.332 444.916 410.399" stroke="#171321" stroke-width="1.2" stroke-miterlimit="10"/>
<path d="M413.664 438.199L413.628 438.185C412.258 437.79 411.01 439.124 411.419 440.493C411.688 441.405 412.097 442.42 412.595 442.59C413.08 442.756 415.752 442.33 416.12 445.078" stroke="#171321" stroke-width="1.2" stroke-miterlimit="10"/>
<path d="M417.575 436.825L416.937 436.03C415.846 434.665 414.18 433.889 412.434 433.929L410.952 433.96C408.496 433.933 406.116 436.183 406.637 438.311C407.391 441.387 408.523 443.659 409.466 445.163" stroke="#171321" stroke-width="1.2" stroke-miterlimit="10"/>
<path d="M452.872 458.027L435.1 459.715" stroke="#171321" stroke-width="1.2" stroke-miterlimit="10"/>
<path d="M430.682 394.275C431.886 397.086 432.07 400.319 431.19 403.247" stroke="#171321" stroke-width="1.2" stroke-miterlimit="10"/>
<path d="M439.761 394.76C440.614 395.883 440.991 397.356 440.776 398.752" stroke="#171321" stroke-width="1.2" stroke-miterlimit="10"/>
<path d="M404.742 412.987C403.206 416.987 402.699 421.379 403.292 425.626" stroke="#171321" stroke-width="1.2" stroke-miterlimit="10"/>
<path d="M409.834 421.118C409.479 422.842 409.465 424.638 409.798 426.367" stroke="#171321" stroke-width="1.2" stroke-miterlimit="10"/>
<path d="M421.93 419.214C424.045 416.286 427.246 414.167 430.767 413.354" stroke="#171321" stroke-width="1.2" stroke-miterlimit="10"/>
<path d="M553.503 438.118H522.933C518.317 438.118 514.442 441.589 513.939 446.178L505.668 521.24C505.08 526.597 509.274 531.28 514.662 531.28H556.489" stroke="#171321" stroke-width="1.2" stroke-miterlimit="10"/>
<path d="M607.259 531.281H638.771" stroke="#171321" stroke-width="1.2" stroke-miterlimit="10"/>
<path d="M640.338 438.118H588.09" stroke="#171321" stroke-width="1.2" stroke-miterlimit="10"/>
<path d="M525.331 438.118L515.071 531.28" stroke="#171321" stroke-width="1.2" stroke-miterlimit="10"/>
<path d="M570.628 491.713L564.404 550.368L548.572 554.167V556.677" stroke="#171321" stroke-width="1.2" stroke-miterlimit="10"/>
<path d="M607.259 550.912V487.758H574.803V555.34" stroke="#171321" stroke-width="1.2" stroke-miterlimit="10"/>
<path d="M439.761 489.261L419.923 485.57L406.565 480.303L390.185 488.672L371.932 531.28" stroke="#171321" stroke-width="1.2" stroke-miterlimit="10"/>
<path d="M399.515 483.904L403.337 475.593C405.411 471.076 409.075 467.484 413.633 465.494L421.724 461.961" stroke="#171321" stroke-width="1.2" stroke-miterlimit="10"/>
<path d="M459.145 484.699L461.776 475.809L460.461 466.047L455.23 462.881" stroke="#171321" stroke-width="1.2" stroke-miterlimit="10"/>
<path d="M453.102 491.713L459.114 551.163" stroke="#171321" stroke-width="1.2" stroke-miterlimit="10"/>
<path d="M413.727 513.571L403.053 540.135L404.742 555.339" stroke="#171321" stroke-width="1.2" stroke-miterlimit="10"/>
<path d="M478.565 500.994L490.096 555.339" stroke="#171321" stroke-width="1.2" stroke-miterlimit="10"/>
<path d="M465.126 473.204L484.33 477.982L501.622 509.934L504.559 548.653" stroke="#171321" stroke-width="1.2" stroke-miterlimit="10"/>
<path d="M528.866 228.281H453.287L433.822 286.658" stroke="#171321" stroke-width="1.2" stroke-miterlimit="10"/>
<path d="M363.918 211.775C359.855 214.882 357.008 219.377 355.971 224.464L347.251 267.224C346.002 273.358 347.736 279.716 351.929 284.363L354.588 287.314" stroke="#171321" stroke-width="1.2" stroke-miterlimit="10"/>
<path d="M421.366 172.122L420.813 176.432" stroke="#171321" stroke-width="1.2" stroke-miterlimit="10"/>
<path d="M439.183 172.122L438.635 176.432" stroke="#171321" stroke-width="1.2" stroke-miterlimit="10"/>
<path d="M382.983 238.105L379.719 271.791L416.031 286.658" stroke="#171321" stroke-width="1.2" stroke-miterlimit="10"/>
<path d="M434.293 192.746C432.411 192.117 430.418 192.633 428.483 192.382C427.293 192.225 426.134 191.78 424.94 191.628C423.108 191.39 421.19 191.839 419.462 191.062C420.405 192.633 421.532 194.048 422.91 195.098C424.666 196.441 426.866 196.957 428.9 196.513C430.934 196.068 433.143 194.721 434.293 192.746V192.746Z" stroke="#171321" stroke-width="1.2" stroke-miterlimit="10"/>
<path d="M432.025 192.422L431.473 193.558L431.895 194.856L434.293 192.745L432.025 192.422Z" fill="#171321"/>
<path d="M421.531 191.524L422.609 194.321L420.553 192.682L419.964 191.25L421.531 191.524Z" fill="#171321"/>
<path d="M433.804 171.372C432.124 174.124 431.967 178.879 434.765 182.597C435.761 183.917 434.589 186.095 433.157 186.284L429.906 186.71" stroke="#171321" stroke-width="1.2" stroke-miterlimit="10"/>
<path d="M437.737 166.981C437.737 166.981 442.847 166.855 446.318 168.005" stroke="#171321" stroke-width="1.2" stroke-miterlimit="10"/>
<path d="M425.367 166.329L419.287 165.62C416.647 165.31 413.97 165.642 411.487 166.59L409.516 167.34" stroke="#171321" stroke-width="1.2" stroke-miterlimit="10"/>
<path d="M406.983 197.518L420.468 206.377C425.371 207.931 430.728 206.328 433.979 202.341L439.043 196.122C439.439 195.421 439.856 194.734 440.296 194.065L441.679 191.977C443.538 189.166 444.203 185.731 443.52 182.436L443.48 182.234C443.165 180.716 443.219 179.144 443.646 177.653L448.244 162.108" stroke="#171321" stroke-width="1.2" stroke-miterlimit="10"/>
<path d="M402.408 169.716C404.851 172.661 405.987 176.653 405.453 180.443C405.12 182.822 404.173 185.063 403.217 187.268" stroke="#171321" stroke-width="1.2" stroke-miterlimit="10"/>
<path d="M414.159 139.985C419.089 137.084 425.164 137.053 430.867 137.56" stroke="#171321" stroke-width="1.2" stroke-miterlimit="10"/>
<path d="M432.524 144.907C434.423 144.669 436.372 144.795 438.222 145.284" stroke="#171321" stroke-width="1.2" stroke-miterlimit="10"/>
<path d="M362.248 188.812H329.097V169.266H362.248" stroke="#CFCED1" stroke-width="1.2" stroke-miterlimit="10"/>
<path d="M341.427 176.334H336.007V181.754H341.427V176.334Z" stroke="#CFCED1" stroke-width="1.2" stroke-miterlimit="10"/>
<path d="M347.798 176.702H362.247" stroke="#CFCED1" stroke-width="1.2" stroke-miterlimit="10"/>
<path d="M347.798 180.268H359.145" stroke="#CFCED1" stroke-width="1.2" stroke-miterlimit="10"/>
<path d="M347.758 234.581H329.061V215.035H351.503" stroke="#CFCED1" stroke-width="1.2" stroke-miterlimit="10"/>
<path d="M341.391 222.098H335.971V227.517H341.391V222.098Z" stroke="#CFCED1" stroke-width="1.2" stroke-miterlimit="10"/>
<path d="M347.758 222.471H352.374" stroke="#CFCED1" stroke-width="1.2" stroke-miterlimit="10"/>
<path d="M347.758 226.036H350.578" stroke="#CFCED1" stroke-width="1.2" stroke-miterlimit="10"/>
<path d="M337.062 193.639V211.048" stroke="#CFCED1" stroke-width="1.2" stroke-miterlimit="10"/>
<path d="M346.856 163.608V151.808H368.377" stroke="#CFCED1" stroke-width="1.2" stroke-miterlimit="10"/>
<path d="M543.341 411.02C545.863 411.02 547.907 408.975 547.907 406.453C547.907 403.931 545.863 401.887 543.341 401.887C540.819 401.887 538.774 403.931 538.774 406.453C538.774 408.975 540.819 411.02 543.341 411.02Z" stroke="#171321" stroke-width="1.2" stroke-miterlimit="10"/>
<path d="M531.878 406.453C531.878 412.784 537.01 417.912 543.336 417.912C549.663 417.912 554.795 412.78 554.795 406.453C554.795 400.126 549.663 394.994 543.336 394.994C540.75 394.994 538.361 395.852 536.444 397.298C536.44 397.307 531.873 399.785 531.873 406.458L531.878 406.453Z" stroke="#171321" stroke-width="1.2" stroke-miterlimit="10"/>
<path d="M544.908 402.157L547.27 395.686" stroke="#171321" stroke-width="1.2" stroke-miterlimit="10"/>
<path d="M546.008 410.157L550.04 415.748" stroke="#171321" stroke-width="1.2" stroke-miterlimit="10"/>
<path d="M540.229 417.486L542.101 410.849" stroke="#171321" stroke-width="1.2" stroke-miterlimit="10"/>
<path d="M440.915 371.237C442.13 371.237 443.115 370.252 443.115 369.037C443.115 367.821 442.13 366.836 440.915 366.836C439.7 366.836 438.715 367.821 438.715 369.037C438.715 370.252 439.7 371.237 440.915 371.237Z" stroke="#CFCED1" stroke-width="1.2" stroke-miterlimit="10"/>
<path d="M416.506 382.426C417.721 382.426 418.706 381.441 418.706 380.226C418.706 379.011 417.721 378.026 416.506 378.026C415.291 378.026 414.306 379.011 414.306 380.226C414.306 381.441 415.291 382.426 416.506 382.426Z" stroke="#CFCED1" stroke-width="1.2" stroke-miterlimit="10"/>
<path d="M457.237 386.93C458.452 386.93 459.437 385.945 459.437 384.73C459.437 383.515 458.452 382.53 457.237 382.53C456.022 382.53 455.037 383.515 455.037 384.73C455.037 385.945 456.022 386.93 457.237 386.93Z" stroke="#CFCED1" stroke-width="1.2" stroke-miterlimit="10"/>
<path d="M474.848 373.19C476.063 373.19 477.048 372.205 477.048 370.99C477.048 369.775 476.063 368.79 474.848 368.79C473.632 368.79 472.647 369.775 472.647 370.99C472.647 372.205 473.632 373.19 474.848 373.19Z" stroke="#CFCED1" stroke-width="1.2" stroke-miterlimit="10"/>
<path d="M491.595 383.683C492.81 383.683 493.796 382.698 493.796 381.483C493.796 380.268 492.81 379.282 491.595 379.282C490.38 379.282 489.395 380.268 489.395 381.483C489.395 382.698 490.38 383.683 491.595 383.683Z" stroke="#CFCED1" stroke-width="1.2" stroke-miterlimit="10"/>
<path d="M529.475 357.231C530.69 357.231 531.675 356.246 531.675 355.031C531.675 353.816 530.69 352.831 529.475 352.831C528.26 352.831 527.275 353.816 527.275 355.031C527.275 356.246 528.26 357.231 529.475 357.231Z" stroke="#CFCED1" stroke-width="1.2" stroke-miterlimit="10"/>
<path d="M530.715 356.846L539.655 369.948" stroke="#CFCED1" stroke-width="1.2" stroke-miterlimit="10"/>
<path d="M493.397 380.226L527.67 356.289" stroke="#CFCED1" stroke-width="1.2" stroke-miterlimit="10"/>
<path d="M476.711 372.156L489.732 380.32" stroke="#CFCED1" stroke-width="1.2" stroke-miterlimit="10"/>
<path d="M458.97 383.378L473.114 372.341" stroke="#CFCED1" stroke-width="1.2" stroke-miterlimit="10"/>
<path d="M442.5 370.558L455.54 383.095" stroke="#CFCED1" stroke-width="1.2" stroke-miterlimit="10"/>
<path d="M418.707 379.212L438.917 369.948" stroke="#CFCED1" stroke-width="1.2" stroke-miterlimit="10"/>
<path d="M414.495 378.964L395.187 366.836" stroke="#CFCED1" stroke-width="1.2" stroke-miterlimit="10"/>
<path d="M515.268 398.281H465.984V404.221H515.268V398.281Z" stroke="#CFCED1" stroke-width="1.2" stroke-miterlimit="10"/>
<path d="M511.932 412.03H465.984V417.971H511.932V412.03Z" stroke="#CFCED1" stroke-width="1.2" stroke-miterlimit="10"/>
<path d="M524.334 425.774H465.984V431.715H524.334V425.774Z" stroke="#CFCED1" stroke-width="1.2" stroke-miterlimit="10"/>
<path d="M503.463 398.281V404.221" stroke="#CFCED1" stroke-width="1.2" stroke-miterlimit="10"/>
<path d="M477.901 398.281V404.221" stroke="#CFCED1" stroke-width="1.2" stroke-miterlimit="10"/>
<path d="M498.807 412.03V417.966" stroke="#CFCED1" stroke-width="1.2" stroke-miterlimit="10"/>
<path d="M515.268 425.774V431.715" stroke="#CFCED1" stroke-width="1.2" stroke-miterlimit="10"/>
<path d="M487.757 425.774V431.715" stroke="#CFCED1" stroke-width="1.2" stroke-miterlimit="10"/>
<path d="M637.177 388.645H607.259" stroke="#CFCED1" stroke-width="1.2" stroke-miterlimit="10"/>
<path d="M607.259 393.305H637.177" stroke="#CFCED1" stroke-width="1.2" stroke-miterlimit="10"/>
<path d="M637.177 383.984H607.259" stroke="#CFCED1" stroke-width="1.2" stroke-miterlimit="10"/>
<path d="M607.259 397.966H618.52" stroke="#CFCED1" stroke-width="1.2" stroke-miterlimit="10"/>
<path d="M403.898 457.08H375.928" stroke="#CFCED1" stroke-width="1.2" stroke-miterlimit="10"/>
<path d="M375.928 461.441H403.898" stroke="#CFCED1" stroke-width="1.2" stroke-miterlimit="10"/>
<path d="M403.898 452.725H375.928" stroke="#CFCED1" stroke-width="1.2" stroke-miterlimit="10"/>
<path d="M375.928 465.796H386.458" stroke="#CFCED1" stroke-width="1.2" stroke-miterlimit="10"/>
<path d="M481.87 450.529H476.118V464.777H481.87V450.529Z" stroke="#CFCED1" stroke-width="1.2" stroke-miterlimit="10"/>
<path d="M492.647 450.529H486.895V464.777H492.647V450.529Z" stroke="#CFCED1" stroke-width="1.2" stroke-miterlimit="10"/>
<path d="M503.423 450.529H497.671V464.777H503.423V450.529Z" stroke="#CFCED1" stroke-width="1.2" stroke-miterlimit="10"/>
<path d="M473.999 455.384H483.994" stroke="#CFCED1" stroke-width="1.2" stroke-miterlimit="10"/>
<path d="M484.776 460.256H494.771" stroke="#CFCED1" stroke-width="1.2" stroke-miterlimit="10"/>
<path d="M495.552 453.83H505.547" stroke="#CFCED1" stroke-width="1.2" stroke-miterlimit="10"/>
<path d="M506.167 464.777H473.303" stroke="#CFCED1" stroke-width="1.2" stroke-miterlimit="10"/>
<path d="M610.985 257.194H636.916" stroke="#CFCED1" stroke-width="1.2" stroke-miterlimit="10"/>
<path d="M610.985 262.255H624.047" stroke="#CFCED1" stroke-width="1.2" stroke-miterlimit="10"/>
<path d="M610.985 290.708H636.916" stroke="#CFCED1" stroke-width="1.2" stroke-miterlimit="10"/>
<path d="M610.985 295.774H624.047" stroke="#CFCED1" stroke-width="1.2" stroke-miterlimit="10"/>
<path d="M610.985 276.636H636.916" stroke="#CFCED1" stroke-width="1.2" stroke-miterlimit="10"/>
<path d="M777.231 251.232H750.959C748.151 251.232 745.876 253.507 745.876 256.315C745.876 259.122 748.151 261.398 750.959 261.398H777.231C780.038 261.398 782.314 259.122 782.314 256.315C782.314 253.507 780.038 251.232 777.231 251.232Z" stroke="#CFCED1" stroke-width="1.2" stroke-miterlimit="10"/>
<path d="M731.252 406.484V446.748H692.465C687.522 446.748 683.516 442.743 683.516 437.799V384.092H714.845" stroke="#CFCED1" stroke-width="1.2" stroke-miterlimit="10"/>
<path d="M715.589 399.754H731.251V399.008L716.335 384.092H715.589V399.754Z" stroke="#CFCED1" stroke-width="1.2" stroke-miterlimit="10"/>
<path d="M720.812 407.961H693.956" stroke="#CFCED1" stroke-width="1.2" stroke-miterlimit="10"/>
<path d="M720.812 415.42H693.956" stroke="#CFCED1" stroke-width="1.2" stroke-miterlimit="10"/>
<path d="M720.812 422.878H693.956" stroke="#CFCED1" stroke-width="1.2" stroke-miterlimit="10"/>
<path d="M707.382 430.336H693.956" stroke="#CFCED1" stroke-width="1.2" stroke-miterlimit="10"/>
<path d="M731.274 391.685H738.733V454.341H690.997" stroke="#CFCED1" stroke-width="1.2" stroke-miterlimit="10"/>
<path d="M359.945 350.159C362.397 344.241 359.587 337.457 353.669 335.005C347.751 332.554 340.966 335.364 338.515 341.282C336.064 347.2 338.874 353.985 344.792 356.436C350.71 358.887 357.494 356.077 359.945 350.159Z" stroke="#CFCED1" stroke-width="1.2" stroke-miterlimit="10"/>
<path d="M384.456 351.731V339.702L375.736 338.422C375.125 336.2 374.245 334.089 373.127 332.132L378.389 325.064L369.885 316.56L362.813 321.818C360.851 320.7 358.74 319.82 356.513 319.209L355.242 310.493H343.213L341.938 319.209C339.711 319.82 337.6 320.704 335.634 321.822L328.571 316.555L320.066 325.06L325.329 332.127C324.211 334.089 323.326 336.204 322.715 338.431L314 339.702V351.731L322.715 353.007C323.326 355.234 324.211 357.344 325.329 359.311L320.062 366.374L328.566 374.878L335.634 369.616C337.596 370.734 339.706 371.618 341.929 372.225L343.204 380.94H355.233L356.513 372.22C358.736 371.61 360.846 370.729 362.804 369.611L369.872 374.874L378.376 366.369L373.113 359.297C374.232 357.34 375.112 355.229 375.722 353.007L384.438 351.731H384.456Z" stroke="#CFCED1" stroke-width="1.2" stroke-miterlimit="10"/>
<path d="M609.842 136.9H578.406C574.154 136.9 570.706 140.349 570.706 144.601V195.929L583.354 181.174H614.974V166.419L629.729 178.61V139.473L614.974 151.664V136.267" stroke="#CFCED1" stroke-width="1.2" stroke-miterlimit="10"/>
<path d="M578.726 159.037C578.726 151.242 585.043 144.925 592.838 144.925C600.633 144.925 606.951 151.242 606.951 159.037C606.951 166.832 600.633 173.15 592.838 173.15C587.351 173.15 582.596 170.02 580.261 165.449" stroke="#CFCED1" stroke-width="1.2" stroke-miterlimit="10"/>
<path d="M547.5 863C547.5 1013.77 425.274 1136 274.5 1136C123.726 1136 1.5 1013.77 1.5 863C1.5 712.226 123.726 590 274.5 590C425.274 590 547.5 712.226 547.5 863Z" stroke="#171321" stroke-width="2"/>
<path d="M944.5 -40C944.5 51.6765 869.958 126 778 126C686.042 126 611.5 51.6765 611.5 -40C611.5 -131.676 686.042 -206 778 -206C869.958 -206 944.5 -131.676 944.5 -40Z" stroke="#171321" stroke-width="2"/>
<path d="M1165.5 583.5C1165.5 703.622 1068.12 801 948 801C827.878 801 730.5 703.622 730.5 583.5C730.5 463.378 827.878 366 948 366C1068.12 366 1165.5 463.378 1165.5 583.5Z" stroke="#171321" stroke-width="2"/>
</svg>
