<svg width="839" height="874" viewBox="0 0 839 874" fill="none" xmlns="http://www.w3.org/2000/svg">
<rect width="839" height="874" fill="#171321"/>
<g clip-path="url(#clip0_2_697)">
<path d="M302.328 362.861L178.529 390.691C128.73 402.902 82.212 428.628 45 466.463V615.973L110.215 656.945C111.307 634.505 117.996 612.04 130.77 591.696C149.958 561.14 179.422 540.872 211.888 532.556L337.446 504.328L302.328 362.861Z" fill="url(#paint0_linear_2_697)"/>
<path d="M301.883 307.654L358.168 550.224L377.177 631.896C385.471 666.186 380.488 703.656 360.289 735.822C352.155 748.774 342.17 759.87 330.898 768.999H506.42C528.771 713.666 532.306 653.906 518.938 598.161L500.758 520.011L444.404 277.028L424.774 192.62C420.17 169.105 421.742 144.346 430.095 120.999H280.145C274.442 155.982 275.465 191.506 282.803 225.663L301.883 307.654Z" fill="url(#paint1_linear_2_697)"/>
<path d="M817 251.178L693.021 173.398C691.936 195.855 685.247 218.339 672.462 238.698C652.26 270.869 620.666 291.635 586.169 299.055L467.447 325.743L500.8 467.603L617.28 441.416C688.701 425.923 754.084 382.86 795.927 316.228C804.16 303.117 811.172 289.58 817 275.753V251.178V251.178Z" fill="url(#paint2_linear_2_697)"/>
<path d="M811.388 279.664L810.59 280.935L812.788 282.315L813.585 281.044L811.388 279.664Z" fill="#E7E4F2"/>
<path d="M804.795 275.524L803.997 276.795L806.195 278.175L806.992 276.904L804.795 275.524Z" fill="#E7E4F2"/>
<path d="M798.19 271.373L797.392 272.643L799.59 274.023L800.387 272.753L798.19 271.373Z" fill="#E7E4F2"/>
<path d="M791.586 267.222L790.788 268.493L792.986 269.873L793.783 268.602L791.586 267.222Z" fill="#E7E4F2"/>
<path d="M784.993 263.082L784.195 264.353L786.393 265.733L787.19 264.462L784.993 263.082Z" fill="#E7E4F2"/>
<path d="M778.42 258.963L777.622 260.233L779.82 261.613L780.618 260.343L778.42 258.963Z" fill="#E7E4F2"/>
<path d="M771.827 254.822L771.029 256.093L773.227 257.473L774.024 256.202L771.827 254.822Z" fill="#E7E4F2"/>
<path d="M765.223 250.672L764.425 251.942L766.623 253.322L767.421 252.052L765.223 250.672Z" fill="#E7E4F2"/>
<path d="M758.619 246.522L757.821 247.792L760.019 249.173L760.817 247.902L758.619 246.522Z" fill="#E7E4F2"/>
<path d="M752.036 242.392L751.238 243.662L753.436 245.042L754.234 243.772L752.036 242.392Z" fill="#E7E4F2"/>
<path d="M745.453 238.262L744.655 239.532L746.853 240.912L747.651 239.642L745.453 238.262Z" fill="#E7E4F2"/>
<path d="M738.839 234.103L738.041 235.373L740.239 236.753L741.037 235.483L738.839 234.103Z" fill="#E7E4F2"/>
<path d="M732.246 229.963L731.448 231.233L733.646 232.613L734.444 231.343L732.246 229.963Z" fill="#E7E4F2"/>
<path d="M725.652 225.822L724.854 227.092L727.052 228.472L727.85 227.202L725.652 225.822Z" fill="#E7E4F2"/>
<path d="M719.069 221.692L718.271 222.962L720.469 224.342L721.267 223.072L719.069 221.692Z" fill="#E7E4F2"/>
<path d="M712.466 217.543L711.668 218.813L713.866 220.193L714.663 218.923L712.466 217.543Z" fill="#E7E4F2"/>
<path d="M705.873 213.403L705.075 214.673L707.273 216.053L708.07 214.783L705.873 213.403Z" fill="#E7E4F2"/>
<path d="M699.279 209.262L698.481 210.533L700.679 211.913L701.477 210.642L699.279 209.262Z" fill="#E7E4F2"/>
<path d="M692.686 205.122L691.888 206.393L694.086 207.773L694.884 206.502L692.686 205.122Z" fill="#E7E4F2"/>
<path d="M775.298 303.076L774.5 304.346L785.711 311.386L786.508 310.115L775.298 303.076Z" fill="#B593FF"/>
<path d="M760.354 293.693L759.556 294.963L770.766 302.003L771.564 300.732L760.354 293.693Z" fill="#B593FF"/>
<path d="M745.406 284.308L744.609 285.578L755.819 292.617L756.617 291.347L745.406 284.308Z" fill="#B593FF"/>
<path d="M730.469 274.931L729.671 276.201L740.881 283.241L741.679 281.971L730.469 274.931Z" fill="#B593FF"/>
<path d="M715.511 265.535L714.713 266.805L725.923 273.844L726.721 272.574L715.511 265.535Z" fill="#B593FF"/>
<path d="M700.564 256.148L699.766 257.419L710.977 264.458L711.774 263.188L700.564 256.148Z" fill="#B593FF"/>
<path d="M685.617 246.763L684.819 248.034L696.029 255.073L696.827 253.803L685.617 246.763Z" fill="#B593FF"/>
<path d="M662.206 324.222L661.409 325.493L690.71 343.892L691.507 342.622L662.206 324.222Z" fill="#E7E4F2"/>
<path d="M702.555 395.637L701.757 396.908L706.153 399.668L706.95 398.398L702.555 395.637Z" fill="#FF9D73"/>
<path d="M693.767 390.123L692.97 391.393L697.365 394.153L698.163 392.883L693.767 390.123Z" fill="#FF9D73"/>
<path d="M684.972 384.597L684.175 385.867L688.57 388.627L689.368 387.357L684.972 384.597Z" fill="#FF9D73"/>
<path d="M676.185 379.083L675.388 380.353L679.783 383.113L680.581 381.843L676.185 379.083Z" fill="#FF9D73"/>
<path d="M667.35 373.598L666.552 374.868L670.947 377.628L671.745 376.358L667.35 373.598Z" fill="#FF9D73"/>
<path d="M658.599 368.037L657.801 369.308L662.197 372.068L662.994 370.797L658.599 368.037Z" fill="#FF9D73"/>
<path d="M649.812 362.523L649.014 363.793L653.41 366.553L654.207 365.283L649.812 362.523Z" fill="#FF9D73"/>
<path d="M641.02 357.002L640.222 358.272L644.618 361.032L645.416 359.762L641.02 357.002Z" fill="#FF9D73"/>
<path d="M632.229 351.482L631.432 352.752L635.827 355.512L636.625 354.242L632.229 351.482Z" fill="#FF9D73"/>
<path d="M623.435 345.957L622.637 347.227L627.032 349.987L627.83 348.717L623.435 345.957Z" fill="#FF9D73"/>
<path d="M614.647 340.441L613.85 341.711L618.245 344.471L619.043 343.201L614.647 340.441Z" fill="#FF9D73"/>
<path d="M605.856 334.922L605.058 336.192L609.454 338.952L610.251 337.682L605.856 334.922Z" fill="#FF9D73"/>
<path d="M597.058 329.392L596.26 330.663L600.656 333.423L601.453 332.152L597.058 329.392Z" fill="#FF9D73"/>
<path d="M588.27 323.877L587.472 325.147L591.867 327.907L592.665 326.637L588.27 323.877Z" fill="#FF9D73"/>
<path d="M579.479 318.357L578.681 319.627L583.076 322.387L583.874 321.117L579.479 318.357Z" fill="#FF9D73"/>
<path d="M570.692 312.841L569.894 314.111L574.29 316.871L575.087 315.601L570.692 312.841Z" fill="#FF9D73"/>
<path d="M561.897 307.316L561.099 308.586L565.495 311.346L566.292 310.076L561.897 307.316Z" fill="#FF9D73"/>
<path d="M428.556 223.591L427.758 224.862L429.967 226.249L430.764 224.978L428.556 223.591Z" fill="#E7E4F2"/>
<path d="M421.903 219.433L421.106 220.703L423.314 222.09L424.112 220.819L421.903 219.433Z" fill="#E7E4F2"/>
<path d="M415.311 215.277L414.513 216.547L416.722 217.934L417.519 216.664L415.311 215.277Z" fill="#E7E4F2"/>
<path d="M408.68 211.111L407.882 212.381L410.091 213.768L410.888 212.498L408.68 211.111Z" fill="#E7E4F2"/>
<path d="M402.029 206.952L401.231 208.223L403.44 209.609L404.238 208.339L402.029 206.952Z" fill="#E7E4F2"/>
<path d="M395.435 202.796L394.637 204.066L396.846 205.453L397.643 204.183L395.435 202.796Z" fill="#E7E4F2"/>
<path d="M388.805 198.63L388.007 199.901L390.216 201.288L391.013 200.017L388.805 198.63Z" fill="#E7E4F2"/>
<path d="M382.156 194.473L381.358 195.743L383.567 197.13L384.364 195.859L382.156 194.473Z" fill="#E7E4F2"/>
<path d="M375.559 190.314L374.761 191.585L376.97 192.972L377.767 191.701L375.559 190.314Z" fill="#E7E4F2"/>
<path d="M368.929 186.15L368.131 187.42L370.34 188.807L371.137 187.537L368.929 186.15Z" fill="#E7E4F2"/>
<path d="M362.281 181.992L361.484 183.263L363.692 184.649L364.49 183.379L362.281 181.992Z" fill="#E7E4F2"/>
<path d="M355.683 177.834L354.886 179.104L357.094 180.491L357.892 179.221L355.683 177.834Z" fill="#E7E4F2"/>
<path d="M349.053 173.669L348.255 174.939L350.464 176.326L351.262 175.056L349.053 173.669Z" fill="#E7E4F2"/>
<path d="M342.407 169.512L341.609 170.782L343.818 172.169L344.616 170.899L342.407 169.512Z" fill="#E7E4F2"/>
<path d="M335.798 165.345L335.001 166.615L337.209 168.002L338.007 166.732L335.798 165.345Z" fill="#E7E4F2"/>
<path d="M329.178 161.189L328.38 162.459L330.589 163.846L331.386 162.576L329.178 161.189Z" fill="#E7E4F2"/>
<path d="M322.553 157.029L321.755 158.299L323.964 159.686L324.762 158.416L322.553 157.029Z" fill="#E7E4F2"/>
<path d="M315.923 152.865L315.125 154.135L317.334 155.522L318.131 154.252L315.923 152.865Z" fill="#E7E4F2"/>
<path d="M309.306 148.711L308.508 149.982L310.717 151.369L311.515 150.098L309.306 148.711Z" fill="#E7E4F2"/>
<path d="M302.677 144.548L301.879 145.818L304.088 147.205L304.886 145.935L302.677 144.548Z" fill="#E7E4F2"/>
<path d="M296.035 140.392L295.237 141.662L297.446 143.049L298.243 141.779L296.035 140.392Z" fill="#E7E4F2"/>
<path d="M289.43 136.24L288.632 137.51L290.84 138.897L291.638 137.627L289.43 136.24Z" fill="#E7E4F2"/>
<path d="M282.784 132.081L281.987 133.351L284.194 134.737L284.992 133.467L282.784 132.081Z" fill="#E7E4F2"/>
<path d="M426.913 268.637L426.116 269.907L443.337 280.721L444.135 279.451L426.913 268.637Z" fill="#FF9D73"/>
<path d="M405.388 255.121L404.59 256.392L421.811 267.205L422.608 265.935L405.388 255.121Z" fill="#FF9D73"/>
<path d="M383.862 241.605L383.064 242.875L400.285 253.689L401.083 252.418L383.862 241.605Z" fill="#FF9D73"/>
<path d="M362.336 228.088L361.538 229.359L378.759 240.172L379.556 238.902L362.336 228.088Z" fill="#FF9D73"/>
<path d="M340.809 214.57L340.012 215.841L357.232 226.654L358.03 225.384L340.809 214.57Z" fill="#FF9D73"/>
<path d="M319.283 201.053L318.485 202.324L335.707 213.138L336.504 211.868L319.283 201.053Z" fill="#FF9D73"/>
<path d="M297.756 187.536L296.959 188.807L314.18 199.621L314.978 198.351L297.756 187.536Z" fill="#FF9D73"/>
<path d="M276.229 174.019L275.432 175.29L292.653 186.104L293.451 184.834L276.229 174.019Z" fill="#FF9D73"/>
<path d="M444.513 325.764L443.716 327.034L451.203 331.736L452.001 330.466L444.513 325.764Z" fill="#5F4AA0"/>
<path d="M433.285 318.717L432.488 319.987L439.975 324.689L440.773 323.418L433.285 318.717Z" fill="#5F4AA0"/>
<path d="M422.059 311.673L421.261 312.943L428.749 317.645L429.547 316.375L422.059 311.673Z" fill="#5F4AA0"/>
<path d="M410.822 304.61L410.024 305.88L417.511 310.582L418.309 309.312L410.822 304.61Z" fill="#5F4AA0"/>
<path d="M399.59 297.558L398.793 298.828L406.28 303.53L407.078 302.259L399.59 297.558Z" fill="#5F4AA0"/>
<path d="M388.359 290.505L387.561 291.776L395.048 296.477L395.846 295.207L388.359 290.505Z" fill="#5F4AA0"/>
<path d="M377.127 283.454L376.33 284.724L383.817 289.426L384.615 288.155L377.127 283.454Z" fill="#5F4AA0"/>
<path d="M365.897 276.403L365.099 277.673L372.587 282.375L373.385 281.105L365.897 276.403Z" fill="#5F4AA0"/>
<path d="M354.666 269.351L353.868 270.621L361.355 275.323L362.153 274.052L354.666 269.351Z" fill="#5F4AA0"/>
<path d="M343.439 262.306L342.641 263.577L350.13 268.279L350.927 267.008L343.439 262.306Z" fill="#5F4AA0"/>
<path d="M332.202 255.244L331.405 256.515L338.892 261.216L339.69 259.946L332.202 255.244Z" fill="#5F4AA0"/>
<path d="M320.97 248.19L320.172 249.461L327.659 254.162L328.457 252.892L320.97 248.19Z" fill="#5F4AA0"/>
<path d="M309.74 241.14L308.942 242.41L316.43 247.112L317.228 245.842L309.74 241.14Z" fill="#5F4AA0"/>
<path d="M298.513 234.094L297.715 235.365L305.204 240.067L306.001 238.797L298.513 234.094Z" fill="#5F4AA0"/>
<path d="M287.276 227.033L286.478 228.304L293.966 233.005L294.763 231.735L287.276 227.033Z" fill="#5F4AA0"/>
<path d="M541.154 432.527L540.356 433.798L555.21 443.125L556.008 441.854L541.154 432.527Z" fill="#B593FF"/>
<path d="M522.588 420.872L521.791 422.142L536.644 431.469L537.442 430.199L522.588 420.872Z" fill="#B593FF"/>
<path d="M504.024 409.22L503.226 410.49L518.081 419.818L518.879 418.548L504.024 409.22Z" fill="#B593FF"/>
<path d="M485.453 397.553L484.655 398.823L499.509 408.15L500.306 406.88L485.453 397.553Z" fill="#B593FF"/>
<path d="M439.449 414.749L438.651 416.019L455.301 426.474L456.099 425.204L439.449 414.749Z" fill="#FF9D73"/>
<path d="M400.03 389.995L399.232 391.265L433.17 412.576L433.968 411.306L400.03 389.995Z" fill="#6FDAC9"/>
<path d="M359.787 364.725L358.989 365.996L380.998 379.816L381.796 378.546L359.787 364.725Z" fill="#FF9D73"/>
<path d="M334.737 348.994L333.939 350.265L353.51 362.554L354.308 361.284L334.737 348.994Z" fill="#E7E4F2"/>
<path d="M388.346 382.657L387.548 383.927L392.849 387.256L393.647 385.986L388.346 382.657Z" fill="#E7E4F2"/>
<path d="M489.327 492.134L488.529 493.404L490.711 494.774L491.509 493.504L489.327 492.134Z" fill="#B593FF"/>
<path d="M482.793 488.057L481.995 489.328L484.177 490.697L484.975 489.427L482.793 488.057Z" fill="#B593FF"/>
<path d="M476.239 483.973L475.441 485.243L477.622 486.613L478.42 485.343L476.239 483.973Z" fill="#B593FF"/>
<path d="M469.704 479.839L468.906 481.109L471.088 482.479L471.886 481.208L469.704 479.839Z" fill="#B593FF"/>
<path d="M463.16 475.729L462.362 476.999L464.544 478.369L465.342 477.099L463.16 475.729Z" fill="#B593FF"/>
<path d="M456.605 471.643L455.807 472.913L457.989 474.284L458.786 473.013L456.605 471.643Z" fill="#B593FF"/>
<path d="M450.071 467.509L449.273 468.78L451.455 470.15L452.253 468.879L450.071 467.509Z" fill="#B593FF"/>
<path d="M443.517 463.37L442.719 464.64L444.9 466.01L445.698 464.74L443.517 463.37Z" fill="#B593FF"/>
<path d="M436.949 459.277L436.151 460.547L438.333 461.917L439.13 460.647L436.949 459.277Z" fill="#B593FF"/>
<path d="M430.428 455.151L429.631 456.422L431.812 457.791L432.61 456.521L430.428 455.151Z" fill="#B593FF"/>
<path d="M423.884 451.094L423.086 452.364L425.267 453.734L426.065 452.464L423.884 451.094Z" fill="#B593FF"/>
<path d="M417.348 446.962L416.55 448.232L418.732 449.602L419.53 448.332L417.348 446.962Z" fill="#B593FF"/>
<path d="M410.795 442.874L409.997 444.145L412.178 445.515L412.976 444.244L410.795 442.874Z" fill="#B593FF"/>
<path d="M404.259 438.743L403.462 440.013L405.643 441.383L406.441 440.113L404.259 438.743Z" fill="#B593FF"/>
<path d="M397.706 434.654L396.908 435.924L399.09 437.294L399.888 436.024L397.706 434.654Z" fill="#B593FF"/>
<path d="M391.161 430.544L390.363 431.815L392.544 433.185L393.342 431.915L391.161 430.544Z" fill="#B593FF"/>
<path d="M384.626 426.414L383.828 427.685L386.01 429.055L386.808 427.784L384.626 426.414Z" fill="#B593FF"/>
<path d="M378.074 422.278L377.276 423.548L379.458 424.918L380.256 423.648L378.074 422.278Z" fill="#B593FF"/>
<path d="M371.509 418.182L370.712 419.453L372.894 420.822L373.691 419.552L371.509 418.182Z" fill="#B593FF"/>
<path d="M364.986 414.059L364.188 415.33L366.37 416.7L367.167 415.429L364.986 414.059Z" fill="#B593FF"/>
<path d="M358.41 409.974L357.613 411.244L359.794 412.614L360.592 411.344L358.41 409.974Z" fill="#B593FF"/>
<path d="M351.906 405.874L351.108 407.145L353.29 408.515L354.087 407.244L351.906 405.874Z" fill="#B593FF"/>
<path d="M345.323 401.755L344.525 403.025L346.707 404.395L347.504 403.125L345.323 401.755Z" fill="#B593FF"/>
<path d="M338.815 397.647L338.017 398.917L340.199 400.287L340.996 399.017L338.815 397.647Z" fill="#B593FF"/>
<path d="M332.262 393.555L331.464 394.826L333.646 396.196L334.443 394.926L332.262 393.555Z" fill="#B593FF"/>
<path d="M325.727 389.436L324.93 390.706L327.111 392.076L327.909 390.806L325.727 389.436Z" fill="#B593FF"/>
<path d="M308.938 424.968L308.141 426.238L312.546 429.005L313.344 427.734L308.938 424.968Z" fill="#6FDAC9"/>
<path d="M300.125 419.415L299.327 420.686L303.732 423.451L304.53 422.181L300.125 419.415Z" fill="#6FDAC9"/>
<path d="M291.314 413.876L290.516 415.146L294.921 417.912L295.719 416.642L291.314 413.876Z" fill="#6FDAC9"/>
<path d="M282.505 408.351L281.708 409.622L286.112 412.388L286.91 411.117L282.505 408.351Z" fill="#6FDAC9"/>
<path d="M273.694 402.816L272.896 404.087L277.301 406.853L278.098 405.582L273.694 402.816Z" fill="#6FDAC9"/>
<path d="M264.884 397.285L264.086 398.555L268.491 401.321L269.289 400.051L264.884 397.285Z" fill="#6FDAC9"/>
<path d="M256.077 391.776L255.279 393.047L259.685 395.813L260.483 394.543L256.077 391.776Z" fill="#6FDAC9"/>
<path d="M247.266 386.24L246.468 387.51L250.874 390.277L251.671 389.007L247.266 386.24Z" fill="#6FDAC9"/>
<path d="M238.455 380.702L237.657 381.973L242.062 384.739L242.86 383.469L238.455 380.702Z" fill="#6FDAC9"/>
<path d="M231.157 468.274L230.36 469.544L261.547 489.128L262.344 487.857L231.157 468.274Z" fill="#E7E4F2"/>
<path d="M162.791 425.346L161.994 426.616L185.683 441.491L186.481 440.221L162.791 425.346Z" fill="#E7E4F2"/>
<path d="M192.985 444.303L192.187 445.573L224.308 465.743L225.106 464.473L192.985 444.303Z" fill="#FF9D73"/>
<path d="M520.088 695.785L519.29 697.055L523.686 699.815L524.483 698.545L520.088 695.785Z" fill="#E6E3F1"/>
<path d="M511.297 690.265L510.5 691.535L514.895 694.295L515.693 693.025L511.297 690.265Z" fill="#E6E3F1"/>
<path d="M502.504 684.73L501.706 686L506.102 688.761L506.899 687.49L502.504 684.73Z" fill="#E6E3F1"/>
<path d="M493.715 679.225L492.917 680.495L497.312 683.255L498.11 681.985L493.715 679.225Z" fill="#E6E3F1"/>
<path d="M484.924 673.705L484.126 674.975L488.521 677.735L489.319 676.465L484.924 673.705Z" fill="#E6E3F1"/>
<path d="M476.13 668.17L475.333 669.441L479.728 672.201L480.526 670.93L476.13 668.17Z" fill="#E6E3F1"/>
<path d="M467.284 662.672L466.486 663.943L470.881 666.703L471.678 665.432L467.284 662.672Z" fill="#E6E3F1"/>
<path d="M458.55 657.144L457.753 658.415L462.148 661.175L462.946 659.904L458.55 657.144Z" fill="#E6E3F1"/>
<path d="M449.757 651.611L448.96 652.881L453.355 655.641L454.153 654.371L449.757 651.611Z" fill="#E6E3F1"/>
<path d="M440.968 646.104L440.17 647.374L444.565 650.134L445.363 648.864L440.968 646.104Z" fill="#E6E3F1"/>
<path d="M432.177 640.584L431.379 641.854L435.774 644.614L436.572 643.344L432.177 640.584Z" fill="#E6E3F1"/>
<path d="M423.384 635.05L422.586 636.321L426.982 639.081L427.779 637.81L423.384 635.05Z" fill="#E6E3F1"/>
<path d="M414.595 629.543L413.797 630.813L418.192 633.573L418.99 632.303L414.595 629.543Z" fill="#E6E3F1"/>
<path d="M405.804 624.023L405.006 625.293L409.402 628.053L410.199 626.783L405.804 624.023Z" fill="#E6E3F1"/>
<path d="M397.011 618.49L396.214 619.76L400.609 622.52L401.407 621.25L397.011 618.49Z" fill="#E6E3F1"/>
<path d="M388.221 612.982L387.423 614.253L391.819 617.013L392.617 615.742L388.221 612.982Z" fill="#E6E3F1"/>
<path d="M379.43 607.462L378.632 608.733L383.028 611.493L383.826 610.222L379.43 607.462Z" fill="#E6E3F1"/>
<path d="M370.638 601.93L369.841 603.201L374.236 605.961L375.034 604.69L370.638 601.93Z" fill="#E6E3F1"/>
<path d="M189.44 488.157L188.642 489.428L232.598 517.029L233.396 515.759L189.44 488.157Z" fill="#6FDAC9"/>
<path d="M141.089 457.797L140.291 459.067L184.247 486.669L185.045 485.398L141.089 457.797Z" fill="#6FDAC9"/>
<path d="M92.7387 427.437L91.941 428.707L135.897 456.309L136.694 455.038L92.7387 427.437Z" fill="#6FDAC9"/>
<path d="M188.061 533.367L187.264 534.638L189.461 536.018L190.259 534.747L188.061 533.367Z" fill="#FF9D73"/>
<path d="M181.469 529.227L180.671 530.498L182.869 531.878L183.666 530.607L181.469 529.227Z" fill="#FF9D73"/>
<path d="M174.875 525.087L174.077 526.357L176.275 527.737L177.072 526.467L174.875 525.087Z" fill="#FF9D73"/>
<path d="M168.281 520.948L167.483 522.218L169.681 523.598L170.479 522.328L168.281 520.948Z" fill="#FF9D73"/>
<path d="M161.689 516.807L160.891 518.077L163.089 519.457L163.887 518.187L161.689 516.807Z" fill="#FF9D73"/>
<path d="M155.095 512.668L154.298 513.938L156.495 515.318L157.293 514.048L155.095 512.668Z" fill="#FF9D73"/>
<path d="M148.501 508.527L147.704 509.798L149.902 511.178L150.699 509.907L148.501 508.527Z" fill="#FF9D73"/>
<path d="M141.908 504.387L141.111 505.657L143.308 507.037L144.106 505.767L141.908 504.387Z" fill="#FF9D73"/>
<path d="M135.316 500.247L134.518 501.517L136.716 502.897L137.513 501.627L135.316 500.247Z" fill="#FF9D73"/>
<path d="M128.722 496.108L127.924 497.378L130.122 498.758L130.92 497.488L128.722 496.108Z" fill="#FF9D73"/>
<path d="M122.128 491.967L121.33 493.238L123.528 494.618L124.326 493.347L122.128 491.967Z" fill="#FF9D73"/>
<path d="M115.535 487.827L114.737 489.097L116.935 490.477L117.733 489.207L115.535 487.827Z" fill="#FF9D73"/>
<path d="M108.921 483.709L108.123 484.98L110.32 486.36L111.118 485.09L108.921 483.709Z" fill="#FF9D73"/>
<path d="M102.344 479.561L101.546 480.831L103.744 482.211L104.541 480.941L102.344 479.561Z" fill="#FF9D73"/>
<path d="M95.7497 475.42L94.952 476.69L97.1497 478.07L97.9474 476.8L95.7497 475.42Z" fill="#FF9D73"/>
<path d="M89.156 471.28L88.3583 472.551L90.556 473.931L91.3537 472.66L89.156 471.28Z" fill="#FF9D73"/>
<path d="M82.5629 467.14L81.7652 468.41L83.9629 469.79L84.7606 468.52L82.5629 467.14Z" fill="#FF9D73"/>
<path d="M75.9759 462.987L75.1782 464.258L77.3759 465.638L78.1736 464.367L75.9759 462.987Z" fill="#FF9D73"/>
<path d="M69.382 458.847L68.5843 460.117L70.782 461.497L71.5797 460.227L69.382 458.847Z" fill="#FF9D73"/>
<path d="M62.7885 454.708L61.9908 455.978L64.1886 457.358L64.9863 456.088L62.7885 454.708Z" fill="#FF9D73"/>
<path d="M132.425 544.512L131.628 545.783L149.21 556.823L150.008 555.553L132.425 544.512Z" fill="#FF9D73"/>
<path d="M110.446 530.717L109.648 531.987L127.231 543.028L128.028 541.758L110.446 530.717Z" fill="#FF9D73"/>
<path d="M88.4696 516.913L87.6719 518.183L105.254 529.224L106.052 527.953L88.4696 516.913Z" fill="#FF9D73"/>
<path d="M66.4898 503.117L65.6921 504.387L83.2746 515.428L84.0723 514.157L66.4898 503.117Z" fill="#FF9D73"/>
<path d="M84.7588 606.767L83.9611 608.038L91.3884 612.702L92.1861 611.431L84.7588 606.767Z" fill="#B593FF"/>
<path d="M95.805 613.674L95.0073 614.944L109.442 624.008L110.24 622.738L95.805 613.674Z" fill="#B593FF"/>
<path d="M672.519 422.881L633.229 398.209L632.431 399.48L671.276 423.873C671.564 423.746 671.851 423.616 672.138 423.488L672.519 422.881Z" fill="#FF9D73"/>
<path d="M512.536 598.931L511.738 600.201L516.133 602.961L516.931 601.691L512.536 598.931Z" fill="#6FDAC9"/>
<path d="M503.8 593.397L503.002 594.667L507.398 597.428L508.195 596.157L503.8 593.397Z" fill="#6FDAC9"/>
<path d="M495.006 587.865L494.209 589.135L498.604 591.895L499.402 590.625L495.006 587.865Z" fill="#6FDAC9"/>
<path d="M486.217 582.357L485.419 583.627L489.815 586.387L490.613 585.117L486.217 582.357Z" fill="#6FDAC9"/>
<path d="M477.426 576.837L476.629 578.107L481.024 580.867L481.822 579.597L477.426 576.837Z" fill="#6FDAC9"/>
<path d="M468.635 571.317L467.838 572.587L472.233 575.347L473.031 574.077L468.635 571.317Z" fill="#6FDAC9"/>
<path d="M459.844 565.797L459.046 567.067L463.441 569.827L464.239 568.557L459.844 565.797Z" fill="#6FDAC9"/>
<path d="M451.053 560.277L450.255 561.547L454.651 564.307L455.448 563.037L451.053 560.277Z" fill="#6FDAC9"/>
<path d="M442.262 554.757L441.464 556.027L445.86 558.787L446.657 557.517L442.262 554.757Z" fill="#6FDAC9"/>
<g opacity="0.5">
<path d="M217.354 230.124L201.164 220.777L185.724 229.691L170.285 220.777L154.47 229.907L155.22 231.207L170.285 222.509L184.974 230.99V247.82L170.17 256.367L155.595 247.952V239.471H154.095V248.818L169.535 257.732V274.995H171.035V257.732L185.838 249.185L193.07 253.36L193.82 252.061L186.474 247.82V230.99L201.164 222.509L215.854 230.99V247.952L200.414 256.763L200.417 256.769H200.414V274.562L185.724 283.043L176.923 277.962L176.173 279.262L185.724 284.775L201.914 275.428V257.635L217.354 248.818V230.124Z" fill="#ACA3D4"/>
<path d="M659.812 644.926C656.698 641.812 651.63 641.812 648.516 644.926C646.806 646.636 646.041 648.934 646.209 651.175L628.427 656.256C628.198 653.292 626.943 650.535 624.819 648.41C622.625 646.216 619.809 645.02 616.934 644.805L621.079 627.712C621.947 628.021 622.855 628.184 623.766 628.184C625.812 628.184 627.857 627.405 629.414 625.848C632.528 622.734 632.528 617.666 629.414 614.552C626.301 611.438 621.233 611.438 618.118 614.552C616.609 616.061 615.778 618.067 615.778 620.2C615.778 622.333 616.609 624.34 618.118 625.848C618.6 626.33 619.132 626.728 619.693 627.061L615.394 644.789C612.4 644.932 609.447 646.129 607.166 648.411C602.299 653.278 602.299 661.197 607.166 666.064C609.6 668.497 612.796 669.714 615.993 669.714C619.19 669.714 622.386 668.497 624.82 666.064C627.042 663.842 628.308 660.929 628.448 657.811L646.464 652.663C646.815 653.968 647.495 655.201 648.517 656.223C650.074 657.78 652.12 658.559 654.165 658.559C656.211 658.559 658.256 657.78 659.813 656.223C662.926 653.108 662.926 648.041 659.812 644.926ZM617.276 620.2C617.276 618.467 617.951 616.838 619.176 615.613C620.441 614.348 622.102 613.716 623.763 613.716C625.425 613.716 627.086 614.348 628.351 615.613C630.88 618.143 630.88 622.259 628.351 624.788C625.821 627.318 621.705 627.317 619.176 624.788C617.951 623.562 617.276 621.933 617.276 620.2ZM623.757 665.002C619.475 669.284 612.508 669.285 608.225 665.002C603.943 660.72 603.943 653.752 608.225 649.47C610.366 647.329 613.179 646.259 615.991 646.259C618.803 646.259 621.616 647.329 623.757 649.47C625.831 651.544 626.974 654.303 626.974 657.236C626.974 660.169 625.832 662.928 623.757 665.002ZM658.751 655.162C656.221 657.691 652.105 657.691 649.576 655.162C647.047 652.632 647.047 648.516 649.576 645.987C650.841 644.722 652.502 644.09 654.163 644.09C655.825 644.09 657.486 644.722 658.751 645.987C661.28 648.516 661.28 652.632 658.751 655.162Z" fill="#ACA3D4"/>
<path d="M608.854 527.067L596.523 519.948V505.711L608.854 498.593L621.183 505.711V512.83H619.683V506.577L608.854 500.324L598.023 506.577V519.082L608.854 525.335L620.058 518.866L620.808 520.165L608.854 527.067Z" fill="#ACA3D4"/>
<path d="M637.438 186.965L625.109 179.846V165.609L637.438 158.49L649.768 165.609V172.728H648.268V166.475L637.438 160.222L626.609 166.475V178.98L637.438 185.233L648.643 178.764L649.393 180.063L637.438 186.965Z" fill="#ACA3D4"/>
<path d="M514.466 169.779C512.776 169.779 511.222 170.358 509.978 171.32L497.863 158.554C498.97 157.266 499.644 155.595 499.644 153.767C499.644 149.709 496.343 146.409 492.286 146.409C488.229 146.409 484.928 149.71 484.928 153.767C484.928 157.824 488.229 161.125 492.286 161.125C493.976 161.125 495.53 160.546 496.774 159.585L508.89 172.351C507.783 173.639 507.109 175.309 507.109 177.138C507.109 181.195 510.41 184.496 514.467 184.496C518.525 184.496 521.825 181.195 521.825 177.138C521.824 173.08 518.523 169.779 514.466 169.779ZM486.428 153.768C486.428 150.538 489.056 147.91 492.286 147.91C495.516 147.91 498.144 150.538 498.144 153.768C498.144 156.998 495.516 159.626 492.286 159.626C489.056 159.625 486.428 156.998 486.428 153.768ZM514.466 182.996C511.236 182.996 508.608 180.368 508.608 177.138C508.608 173.908 511.236 171.28 514.466 171.28C517.696 171.28 520.324 173.908 520.324 177.138C520.324 180.368 517.696 182.996 514.466 182.996Z" fill="#ACA3D4"/>
<path d="M281.389 623.894C278.168 623.894 275.548 621.274 275.548 618.053C275.548 614.832 278.168 612.212 281.389 612.212C284.609 612.212 287.229 614.832 287.229 618.053C287.229 621.274 284.609 623.894 281.389 623.894ZM281.389 613.712C278.995 613.712 277.048 615.659 277.048 618.053C277.048 620.447 278.995 622.394 281.389 622.394C283.782 622.394 285.729 620.447 285.729 618.053C285.729 615.659 283.782 613.712 281.389 613.712Z" fill="#ACA3D4"/>
<path d="M119.576 320.167C116.356 320.167 113.736 317.547 113.736 314.326C113.736 311.105 116.356 308.485 119.576 308.485C122.797 308.485 125.417 311.105 125.417 314.326C125.417 317.547 122.796 320.167 119.576 320.167ZM119.576 309.986C117.183 309.986 115.236 311.933 115.236 314.327C115.236 316.721 117.183 318.668 119.576 318.668C121.97 318.668 123.917 316.721 123.917 314.327C123.917 311.933 121.969 309.986 119.576 309.986Z" fill="#ACA3D4"/>
<path d="M765.495 646.254C762.274 646.254 759.654 643.634 759.654 640.413C759.654 637.192 762.274 634.572 765.495 634.572C768.716 634.572 771.336 637.192 771.336 640.413C771.336 643.634 768.716 646.254 765.495 646.254ZM765.495 636.073C763.101 636.073 761.154 638.02 761.154 640.414C761.154 642.808 763.101 644.755 765.495 644.755C767.889 644.755 769.836 642.808 769.836 640.414C769.836 638.02 767.889 636.073 765.495 636.073Z" fill="#ACA3D4"/>
<path d="M518.887 272.555C515.666 272.555 513.046 269.935 513.046 266.714C513.046 263.493 515.666 260.873 518.887 260.873C522.107 260.873 524.727 263.493 524.727 266.714C524.727 269.935 522.107 272.555 518.887 272.555ZM518.887 262.374C516.493 262.374 514.546 264.321 514.546 266.715C514.546 269.109 516.493 271.056 518.887 271.056C521.28 271.056 523.227 269.109 523.227 266.715C523.227 264.321 521.28 262.374 518.887 262.374Z" fill="#ACA3D4"/>
<path d="M755.294 517.4H753.794V538.725H755.294V517.4Z" fill="#ACA3D4"/>
<path d="M729.172 530.601L728.422 531.9L748.586 543.542L749.336 542.243L729.172 530.601Z" fill="#ACA3D4"/>
<path d="M747.837 512.423L728.93 523.339L729.68 524.638L748.587 513.722L747.837 512.423Z" fill="#ACA3D4"/>
<path d="M755.294 517.4H753.794V538.725H755.294V517.4Z" fill="#ACA3D4"/>
<path d="M729.172 530.601L728.422 531.9L748.586 543.542L749.336 542.243L729.172 530.601Z" fill="#ACA3D4"/>
<path d="M747.837 512.423L728.93 523.339L729.68 524.638L748.587 513.722L747.837 512.423Z" fill="#ACA3D4"/>
<path d="M754.544 514.955C753.114 514.955 751.769 514.398 750.758 513.387C748.671 511.299 748.671 507.903 750.758 505.815C751.769 504.804 753.114 504.247 754.544 504.247C755.974 504.247 757.318 504.804 758.33 505.815C759.341 506.826 759.898 508.171 759.898 509.601C759.898 511.031 759.341 512.376 758.33 513.387C757.319 514.398 755.975 514.955 754.544 514.955ZM754.544 505.747C753.515 505.747 752.546 506.148 751.818 506.876C750.316 508.379 750.316 510.824 751.818 512.326C753.274 513.782 755.813 513.782 757.269 512.326C757.997 511.598 758.398 510.63 758.398 509.601C758.398 508.572 757.997 507.604 757.269 506.876C756.542 506.148 755.574 505.747 754.544 505.747Z" fill="#ACA3D4"/>
<path d="M722.746 533.122C721.315 533.122 719.971 532.565 718.96 531.554C716.873 529.466 716.873 526.07 718.96 523.982C719.971 522.971 721.315 522.414 722.746 522.414C724.176 522.414 725.52 522.971 726.532 523.982C728.619 526.069 728.619 529.466 726.532 531.554C725.521 532.565 724.176 533.122 722.746 533.122ZM722.746 523.914C721.716 523.914 720.748 524.315 720.02 525.043C718.518 526.546 718.518 528.991 720.02 530.494C721.476 531.95 724.015 531.95 725.471 530.494C726.973 528.991 726.973 526.546 725.471 525.043C724.743 524.315 723.775 523.914 722.746 523.914Z" fill="#ACA3D4"/>
<path d="M754.544 551.458C753.114 551.458 751.769 550.901 750.758 549.89C748.671 547.802 748.671 544.406 750.758 542.318C751.769 541.307 753.114 540.75 754.544 540.75C755.974 540.75 757.318 541.307 758.33 542.318C759.341 543.329 759.898 544.674 759.898 546.104C759.898 547.534 759.341 548.879 758.33 549.89C757.319 550.901 755.975 551.458 754.544 551.458ZM754.544 542.25C753.515 542.25 752.546 542.651 751.818 543.379C750.316 544.882 750.316 547.327 751.818 548.829C753.274 550.285 755.813 550.285 757.269 548.829C757.997 548.101 758.398 547.133 758.398 546.104C758.398 545.074 757.997 544.107 757.269 543.379C756.542 542.651 755.574 542.25 754.544 542.25Z" fill="#ACA3D4"/>
<path d="M198.58 663.214L197.919 664.56L217.063 673.956L217.724 672.609L198.58 663.214Z" fill="#ACA3D4"/>
<path d="M218.271 679.428L198.938 692.404L199.774 693.649L219.107 680.673L218.271 679.428Z" fill="#ACA3D4"/>
<path d="M192.341 667.565L190.844 667.666L192.313 689.448L193.81 689.347L192.341 667.565Z" fill="#ACA3D4"/>
<path d="M198.58 663.214L197.919 664.56L217.063 673.956L217.724 672.609L198.58 663.214Z" fill="#ACA3D4"/>
<path d="M218.271 679.428L198.938 692.404L199.774 693.649L219.107 680.673L218.271 679.428Z" fill="#ACA3D4"/>
<path d="M192.341 667.565L190.844 667.666L192.313 689.448L193.81 689.347L192.341 667.565Z" fill="#ACA3D4"/>
<path d="M191.25 665.78C190.443 665.78 189.642 665.596 188.896 665.23C187.612 664.6 186.65 663.508 186.188 662.154C185.726 660.8 185.818 659.348 186.448 658.064C187.078 656.78 188.171 655.818 189.524 655.356C192.318 654.402 195.367 655.898 196.321 658.692C197.276 661.486 195.779 664.535 192.986 665.49C192.418 665.684 191.833 665.78 191.25 665.78ZM191.252 656.569C190.84 656.569 190.421 656.636 190.01 656.776C189.035 657.109 188.249 657.801 187.796 658.725C187.343 659.649 187.276 660.695 187.608 661.669C187.941 662.643 188.633 663.429 189.557 663.883C190.481 664.336 191.527 664.403 192.501 664.07C194.512 663.383 195.589 661.188 194.902 659.177C194.356 657.578 192.855 656.569 191.252 656.569Z" fill="#ACA3D4"/>
<path d="M193.551 702.33C192.744 702.33 191.942 702.145 191.197 701.78C189.913 701.15 188.951 700.058 188.489 698.704C188.027 697.35 188.119 695.898 188.749 694.614C189.379 693.33 190.472 692.369 191.825 691.906C194.62 690.952 197.668 692.448 198.622 695.242C199.577 698.036 198.08 701.085 195.287 702.039C194.719 702.234 194.134 702.33 193.551 702.33ZM193.552 693.119C193.14 693.119 192.721 693.186 192.31 693.326C191.335 693.659 190.549 694.351 190.096 695.275C189.642 696.199 189.576 697.245 189.908 698.219C190.241 699.193 190.933 699.98 191.857 700.433C192.781 700.886 193.827 700.953 194.801 700.62C196.812 699.933 197.889 697.738 197.202 695.727C196.656 694.128 195.155 693.119 193.552 693.119Z" fill="#ACA3D4"/>
<path d="M224.021 681.862C223.214 681.862 222.412 681.677 221.667 681.312C220.383 680.682 219.421 679.59 218.959 678.236C218.497 676.882 218.589 675.43 219.219 674.146C219.849 672.862 220.941 671.9 222.294 671.438C225.086 670.484 228.137 671.98 229.091 674.774C230.046 677.568 228.549 680.617 225.756 681.572C225.188 681.766 224.604 681.862 224.021 681.862ZM222.779 672.858C221.804 673.191 221.018 673.883 220.565 674.807C220.112 675.731 220.045 676.777 220.378 677.751C220.711 678.725 221.403 679.512 222.327 679.965C223.251 680.418 224.297 680.485 225.271 680.152C227.282 679.465 228.359 677.27 227.672 675.259C226.985 673.248 224.789 672.172 222.779 672.858Z" fill="#ACA3D4"/>
</g>
<path d="M681.079 245.708L681.877 244.437L672.538 238.573C672.512 238.614 672.488 238.656 672.462 238.698C672.221 239.081 671.971 239.455 671.727 239.836L681.079 245.708Z" fill="#B593FF"/>
<path d="M790.241 312.485L789.443 313.756L795.192 317.366C795.434 316.984 795.686 316.612 795.927 316.228C795.953 316.186 795.978 316.145 796.004 316.104L790.241 312.485Z" fill="#B593FF"/>
<path d="M645.783 269.623L771.988 348.874C772.315 348.489 772.642 348.104 772.967 347.717L646.967 268.594C646.573 268.938 646.18 269.284 645.783 269.623Z" fill="#E7E4F2"/>
<path d="M697.986 346.713L697.188 347.984L744.027 377.397C744.419 377.051 744.817 376.715 745.207 376.367L697.986 346.713Z" fill="#6FDAC9"/>
<path d="M608.42 292.241L654.922 321.443L655.72 320.172L610.117 291.536C609.552 291.772 608.988 292.012 608.42 292.241Z" fill="#FF9D73"/>
<path d="M625.562 439.474L552.888 393.837L552.09 395.108L623.545 439.979C624.218 439.816 624.889 439.642 625.562 439.474Z" fill="#6FDAC9"/>
<path d="M559.713 444.205L558.916 445.475L569.573 452.167L571.649 451.699L559.713 444.205Z" fill="#B593FF"/>
<path d="M526.55 653.78L357.571 547.668L358.055 549.744L526.603 655.585C526.585 654.983 526.572 654.381 526.55 653.78Z" fill="#FF9D73"/>
<path d="M516.428 739.584L380.658 654.326C380.701 654.94 380.736 655.554 380.771 656.169L516.015 741.096C516.158 740.593 516.287 740.087 516.428 739.584Z" fill="#E6E3F1"/>
<path d="M440.112 737.713L439.315 738.984L456.897 750.024L457.695 748.754L440.112 737.713Z" fill="#FF9D73"/>
<path d="M418.135 723.922L417.337 725.192L434.92 736.233L435.717 734.963L418.135 723.922Z" fill="#FF9D73"/>
<path d="M396.157 710.113L395.359 711.384L412.941 722.424L413.739 721.154L396.157 710.113Z" fill="#FF9D73"/>
<path d="M391.744 707.368L376.678 697.907C376.547 698.412 376.403 698.915 376.265 699.419L390.946 708.638L391.744 707.368Z" fill="#FF9D73"/>
<path d="M393.009 754.214L392.211 755.484L394.409 756.864L395.207 755.594L393.009 754.214Z" fill="#B593FF"/>
<path d="M386.416 750.074L385.618 751.344L387.816 752.724L388.614 751.454L386.416 750.074Z" fill="#B593FF"/>
<path d="M379.823 745.934L379.026 747.204L381.223 748.584L382.021 747.314L379.823 745.934Z" fill="#B593FF"/>
<path d="M373.23 741.794L372.433 743.064L374.63 744.444L375.428 743.174L373.23 741.794Z" fill="#B593FF"/>
<path d="M366.637 737.653L365.839 738.924L368.037 740.304L368.834 739.033L366.637 737.653Z" fill="#B593FF"/>
<path d="M361.424 736.18L362.222 734.91L361.227 734.285C360.967 734.712 360.711 735.141 360.446 735.566L361.424 736.18Z" fill="#B593FF"/>
<path d="M131.748 590.181L86.469 561.748L85.671 563.018L130.935 591.442C131.202 591.018 131.476 590.601 131.748 590.181Z" fill="#6FDAC9"/>
<path d="M154.389 558.319L153.591 559.589L156.614 561.487C157.01 561.143 157.411 560.806 157.81 560.467L154.389 558.319Z" fill="#FF9D73"/>
<path d="M237.78 518.524L236.982 519.794L245.33 525.037L247.407 524.57L237.78 518.524Z" fill="#6FDAC9"/>
<path d="M268.819 491.936L268.021 493.206L299.366 512.889L301.443 512.422L268.819 491.936Z" fill="#6FDAC9"/>
<path d="M155.499 422.546L156.297 421.276L132.454 406.303C131.901 406.545 131.349 406.789 130.798 407.034L155.499 422.546Z" fill="#FF9D73"/>
<path d="M296.427 371.032L288.436 366.014L286.358 366.48L295.629 372.302L296.427 371.032Z" fill="#FF9D73"/>
<path d="M618.75 389.116L504.583 317.424L502.507 317.892L617.952 390.387L618.75 389.116Z" fill="#FF9D73"/>
<path d="M517.585 463.83L496.852 450.81L497.34 452.888L515.508 464.296L517.585 463.83Z" fill="#5F4AA0"/>
<path d="M471.919 344.765L545.54 390.995L546.337 389.725L472.031 343.063L471.659 343.656L471.919 344.765Z" fill="#E7E4F2"/>
<path d="M306.11 378.097L305.821 376.931L300.055 373.31L299.257 374.581L305.756 378.661L306.11 378.097Z" fill="#FF9D73"/>
<path d="M319.595 432.416L319.372 431.521L317.737 430.494L316.939 431.764L319.137 433.144L319.595 432.416Z" fill="#6FDAC9"/>
<path d="M333.287 487.574L332.924 486.111L180.328 390.286L178.529 390.69C178.439 390.712 178.35 390.737 178.26 390.759L333.045 487.958L333.287 487.574Z" fill="#E7E4F2"/>
<path d="M421.249 541.575L345.059 493.731L345.54 495.805L420.451 542.846L421.249 541.575Z" fill="#FF9D73"/>
<path d="M320.508 387.925L320.554 387.954L321.352 386.683L320.252 385.993L320.112 386.217L320.508 387.925Z" fill="#B593FF"/>
<path d="M507.681 549.771L333.216 440.214L332.796 440.883L333.024 441.865L508.164 551.845L507.681 549.771Z" fill="#E7E4F2"/>
<path d="M482.639 441.885L461.569 428.654L460.771 429.924L483.12 443.958L482.639 441.885Z" fill="#E7E4F2"/>
<path d="M470.25 388.469L470.13 387.95L294.972 277.958L295.455 280.032L469.652 389.421L470.25 388.469Z" fill="#6FDAC9"/>
<path d="M457.621 334.014L455.741 332.834L454.943 334.104L458.101 336.087L457.621 334.014Z" fill="#5F4AA0"/>
<path d="M307.706 332.034L307.584 332.228L307.992 333.985L328.453 346.834L329.251 345.563L307.706 332.034Z" fill="#6FDAC9"/>
<path d="M516.073 463.39L500.617 466.866L500.946 468.33L516.402 464.854L516.073 463.39Z" fill="#B593FF"/>
<path d="M302.155 362.114L200.294 385.022L200.623 386.485L302.484 363.578L302.155 362.114Z" fill="#B593FF"/>
<path d="M124.063 410.95L123.416 409.597C134.539 404.275 146.133 399.634 157.878 395.802L158.343 397.228C146.661 401.039 135.127 405.656 124.063 410.95Z" fill="#B593FF"/>
<path d="M47.51 464.978L46.451 463.916C65.111 445.324 86.317 429.454 109.48 416.747L110.202 418.062C87.163 430.701 66.07 446.486 47.51 464.978Z" fill="#B593FF"/>
<path d="M508.234 766.494L506.838 765.947C520.074 732.141 526.513 696.519 525.976 660.07L527.476 660.048C528.015 696.693 521.541 732.506 508.234 766.494Z" fill="#B593FF"/>
<path d="M525.299 644.274C524.751 636.546 523.871 628.737 522.684 621.062L524.166 620.833C525.359 628.548 526.244 636.399 526.794 644.168L525.299 644.274Z" fill="#B593FF"/>
<path d="M452.671 309.46L451.21 309.798L464.867 368.69L466.329 368.351L452.671 309.46Z" fill="#B593FF"/>
<path d="M486.378 454.818L484.917 455.157L515.378 586.507L516.839 586.168L486.378 454.818Z" fill="#B593FF"/>
<path d="M447.677 294.46L443.674 277.198L424.044 192.79C422.349 184.133 421.488 175.307 421.48 166.53L422.98 166.529C422.988 175.209 423.839 183.939 425.51 192.476L449.138 294.121L447.677 294.46Z" fill="#B593FF"/>
<path d="M423.829 151.302L422.339 151.134C423.46 141.207 425.686 131.396 428.956 121.972L430.373 122.464C427.139 131.782 424.938 141.485 423.829 151.302Z" fill="#B593FF"/>
<path d="M666.538 248.629L665.339 247.727C667.618 244.697 669.801 241.525 671.828 238.298C684.06 218.82 691.126 196.428 692.264 173.546L693.762 173.62C692.612 196.759 685.467 219.4 673.099 239.096C671.049 242.359 668.842 245.566 666.538 248.629Z" fill="#B593FF"/>
<path d="M586.327 299.788L586.012 298.322C612.733 292.575 636.73 279.139 655.409 259.467L656.497 260.5C637.608 280.391 613.344 293.977 586.327 299.788Z" fill="#B593FF"/>
<path d="M110.964 656.981L109.466 656.908C109.617 653.802 109.879 650.661 110.243 647.573L111.732 647.749C111.373 650.802 111.114 653.909 110.964 656.981Z" fill="#B593FF"/>
<path d="M114.348 632.866L112.888 632.523C114.406 626.052 116.422 619.638 118.879 613.459L120.273 614.013C117.843 620.124 115.85 626.467 114.348 632.866Z" fill="#B593FF"/>
<path d="M126.681 600.228L125.359 599.52C126.843 596.747 128.451 593.98 130.135 591.297C148.749 561.654 177.717 540.535 211.702 531.829L216.985 530.641L217.314 532.104L212.053 533.287C178.464 541.892 149.815 562.779 131.406 592.094C129.739 594.749 128.149 597.485 126.681 600.228Z" fill="#B593FF"/>
<path d="M345.391 756.486L344.291 755.466C349.993 749.32 355.161 742.577 359.652 735.425C379.109 704.442 385.073 667.737 376.446 632.074L375.633 628.581L377.094 628.241L377.906 631.728C386.627 667.782 380.595 704.895 360.923 736.223C356.382 743.453 351.157 750.271 345.391 756.486Z" fill="#B593FF"/>
<path d="M366.407 582.26L364.946 582.6L372.056 613.145L373.517 612.805L366.407 582.26Z" fill="#B593FF"/>
<path d="M361.362 567.259L357.437 550.395L338.657 469.457L340.118 469.118L362.823 566.919L361.362 567.259Z" fill="#B593FF"/>
<path d="M285.57 240.864L282.072 225.834C276.505 199.925 274.588 173.443 276.372 147.109L277.868 147.21C276.094 173.404 278.001 199.747 283.536 225.506L287.031 240.524L285.57 240.864Z" fill="#B593FF"/>
<path d="M531.196 461.538L530.867 460.075L617.115 440.685C628.407 438.235 639.654 435.062 650.549 431.252L651.044 432.668C640.092 436.498 628.786 439.688 617.439 442.15L531.196 461.538Z" fill="#B593FF"/>
<path d="M706.522 406.199L705.733 404.924C725.535 392.666 743.747 377.956 759.864 361.202L760.945 362.242C744.741 379.086 726.431 393.875 706.522 406.199Z" fill="#B593FF"/>
</g>
<defs>
<linearGradient id="paint0_linear_2_697" x1="272.67" y1="409.138" x2="118.532" y2="553.132" gradientUnits="userSpaceOnUse">
<stop offset="0.0177" stop-color="#241F35"/>
<stop offset="0.9145" stop-color="#241F35" stop-opacity="0"/>
</linearGradient>
<linearGradient id="paint1_linear_2_697" x1="258.607" y1="321.408" x2="508.566" y2="574.86" gradientUnits="userSpaceOnUse">
<stop stop-color="#B593FF" stop-opacity="0"/>
<stop offset="0.0707" stop-color="#B593FF" stop-opacity="0.0283"/>
<stop offset="0.5" stop-color="#B593FF" stop-opacity="0.2"/>
<stop offset="0.9293" stop-color="#B593FF" stop-opacity="0.0283"/>
<stop offset="1" stop-color="#B593FF" stop-opacity="0"/>
</linearGradient>
<linearGradient id="paint2_linear_2_697" x1="530.038" y1="446.352" x2="682.896" y2="260.565" gradientUnits="userSpaceOnUse">
<stop stop-color="#241F35"/>
<stop offset="1" stop-color="#241F35" stop-opacity="0"/>
</linearGradient>
<clipPath id="clip0_2_697">
<rect width="772" height="648" fill="white" transform="translate(45 121)"/>
</clipPath>
</defs>
</svg>
